(footprint "A-4575" (version 20211014) (generator pcbnew)
  (layer "F.Cu")
  (tedit 0)
  (attr through_hole)
  (fp_text reference "REF**" (at -2.54 -2.54 unlocked) (layer "F.SilkS")
    (effects (font (size 1 1) (thickness 0.15)))
    (tstamp 6be77dc3-1bdb-4432-ba13-c96cde60f1ac)
  )
  (fp_text value "A-4575" (at 10.16 12.7 unlocked) (layer "F.Fab")
    (effects (font (size 1 1) (thickness 0.15)))
    (tstamp b5eda039-b88b-4416-8f04-6175ebff0b83)
  )
  (fp_text user "${REFERENCE}" (at 9.91 5.08 unlocked) (layer "F.Fab")
    (effects (font (size 1 1) (thickness 0.15)))
    (tstamp b3037b31-5049-4f12-a732-76532123eac4)
  )
  (fp_line (start 19.82 11.125) (end 19.82 0) (layer "F.Fab") (width 0.1) (tstamp 114ed6e9-2713-4962-8156-8dd435915ef7))
  (fp_line (start 5.08 17.78) (end 5.08 10.16) (layer "F.Fab") (width 0.1) (tstamp 36ed9df8-1909-4d46-8ee0-3fa43133b9f0))
  (fp_line (start 0 11.125) (end 0 17.78) (layer "F.Fab") (width 0.1) (tstamp 4b4f9a6a-8895-4e39-bdd2-c051c5be192a))
  (fp_line (start 23.73 0) (end -3.91 0) (layer "F.Fab") (width 0.1) (tstamp 516ec526-f2ad-49c6-8c12-ce0589c420b5))
  (fp_line (start 0 17.78) (end 5.08 17.78) (layer "F.Fab") (width 0.1) (tstamp 676c6154-588b-47a6-b410-2985e058f298))
  (fp_line (start 23.73 11.125) (end 23.73 0) (layer "F.Fab") (width 0.1) (tstamp 774dec66-d3a1-4df8-8daf-e2deb17e2f35))
  (fp_line (start 17.78 17.78) (end 17.78 10.16) (layer "F.Fab") (width 0.1) (tstamp 907a9062-be8a-4dc5-a4c8-4558dd8a32b3))
  (fp_line (start 0 0) (end 0 11.125) (layer "F.Fab") (width 0.1) (tstamp 97509902-3749-4d68-9a0d-094529c9004a))
  (fp_line (start 12.7 17.78) (end 17.78 17.78) (layer "F.Fab") (width 0.1) (tstamp 9a23e4d9-318f-4727-b2b8-2afc3cdce5b7))
  (fp_line (start 12.7 11.125) (end 12.7 17.78) (layer "F.Fab") (width 0.1) (tstamp a57124e5-3967-45fb-8c27-0c441aa6b885))
  (fp_line (start -3.91 0) (end -3.91 11.125) (layer "F.Fab") (width 0.1) (tstamp e6e9c300-cb38-481b-b1d1-ec7ec5a75de9))
  (fp_line (start -3.91 11.125) (end 23.73 11.125) (layer "F.Fab") (width 0.1) (tstamp ef84020d-e226-47d6-a914-f1029bb45c39))
  (pad "1" thru_hole circle (at 0 0) (size 3.175 3.175) (drill 1.27) (layers *.Cu *.Mask) (tstamp 41851ab8-9734-4c37-b5e4-57831fdd3213))
  (pad "2" thru_hole circle (at 6 0) (size 3.175 3.175) (drill 1.27) (layers *.Cu *.Mask) (tstamp 2beca07f-9c90-44d1-af06-0e6e274862bb))
  (pad "3" thru_hole circle (at 3 -5.435) (size 3.175 3.175) (drill 1.27) (layers *.Cu *.Mask) (tstamp ca59e0b2-99d1-4554-bfd9-d585b6889e5d))
  (pad "4" thru_hole circle (at 13.82 0) (size 3.175 3.175) (drill 1.27) (layers *.Cu *.Mask) (tstamp 3a092312-74f7-44e9-9794-14ec39400578))
  (pad "5" thru_hole circle (at 19.82 0) (size 3.175 3.175) (drill 1.27) (layers *.Cu *.Mask) (tstamp 5d17ce91-6003-4acd-abb1-74034ccc266a))
  (pad "6" thru_hole circle (at 16.82 -5.435) (size 3.175 3.175) (drill 1.27) (layers *.Cu *.Mask) (tstamp ed86db1e-99df-4997-972a-e88da5b98bbf))
)
