(kicad_sch (version 20211123) (generator eeschema)

  (uuid 6633dd0e-6b57-4a3c-a338-f9b35c9ec2c5)

  (paper "A4")

  (lib_symbols
    (symbol "Connector:USB_B" (pin_names (offset 1.016)) (in_bom yes) (on_board yes)
      (property "Reference" "J" (id 0) (at -5.08 11.43 0)
        (effects (font (size 1.27 1.27)) (justify left))
      )
      (property "Value" "USB_B" (id 1) (at -5.08 8.89 0)
        (effects (font (size 1.27 1.27)) (justify left))
      )
      (property "Footprint" "" (id 2) (at 3.81 -1.27 0)
        (effects (font (size 1.27 1.27)) hide)
      )
      (property "Datasheet" " ~" (id 3) (at 3.81 -1.27 0)
        (effects (font (size 1.27 1.27)) hide)
      )
      (property "ki_keywords" "connector USB" (id 4) (at 0 0 0)
        (effects (font (size 1.27 1.27)) hide)
      )
      (property "ki_description" "USB Type B connector" (id 5) (at 0 0 0)
        (effects (font (size 1.27 1.27)) hide)
      )
      (property "ki_fp_filters" "USB*" (id 6) (at 0 0 0)
        (effects (font (size 1.27 1.27)) hide)
      )
      (symbol "USB_B_0_1"
        (rectangle (start -5.08 -7.62) (end 5.08 7.62)
          (stroke (width 0.254) (type default) (color 0 0 0 0))
          (fill (type background))
        )
        (circle (center -3.81 2.159) (radius 0.635)
          (stroke (width 0.254) (type default) (color 0 0 0 0))
          (fill (type outline))
        )
        (rectangle (start -3.81 5.588) (end -2.54 4.572)
          (stroke (width 0) (type default) (color 0 0 0 0))
          (fill (type outline))
        )
        (circle (center -0.635 3.429) (radius 0.381)
          (stroke (width 0.254) (type default) (color 0 0 0 0))
          (fill (type outline))
        )
        (rectangle (start -0.127 -7.62) (end 0.127 -6.858)
          (stroke (width 0) (type default) (color 0 0 0 0))
          (fill (type none))
        )
        (polyline
          (pts
            (xy -1.905 2.159)
            (xy 0.635 2.159)
          )
          (stroke (width 0.254) (type default) (color 0 0 0 0))
          (fill (type none))
        )
        (polyline
          (pts
            (xy -3.175 2.159)
            (xy -2.54 2.159)
            (xy -1.27 3.429)
            (xy -0.635 3.429)
          )
          (stroke (width 0.254) (type default) (color 0 0 0 0))
          (fill (type none))
        )
        (polyline
          (pts
            (xy -2.54 2.159)
            (xy -1.905 2.159)
            (xy -1.27 0.889)
            (xy 0 0.889)
          )
          (stroke (width 0.254) (type default) (color 0 0 0 0))
          (fill (type none))
        )
        (polyline
          (pts
            (xy 0.635 2.794)
            (xy 0.635 1.524)
            (xy 1.905 2.159)
            (xy 0.635 2.794)
          )
          (stroke (width 0.254) (type default) (color 0 0 0 0))
          (fill (type outline))
        )
        (polyline
          (pts
            (xy -4.064 4.318)
            (xy -2.286 4.318)
            (xy -2.286 5.715)
            (xy -2.667 6.096)
            (xy -3.683 6.096)
            (xy -4.064 5.715)
            (xy -4.064 4.318)
          )
          (stroke (width 0) (type default) (color 0 0 0 0))
          (fill (type none))
        )
        (rectangle (start 0.254 1.27) (end -0.508 0.508)
          (stroke (width 0.254) (type default) (color 0 0 0 0))
          (fill (type outline))
        )
        (rectangle (start 5.08 -2.667) (end 4.318 -2.413)
          (stroke (width 0) (type default) (color 0 0 0 0))
          (fill (type none))
        )
        (rectangle (start 5.08 -0.127) (end 4.318 0.127)
          (stroke (width 0) (type default) (color 0 0 0 0))
          (fill (type none))
        )
        (rectangle (start 5.08 4.953) (end 4.318 5.207)
          (stroke (width 0) (type default) (color 0 0 0 0))
          (fill (type none))
        )
      )
      (symbol "USB_B_1_1"
        (pin power_out line (at 7.62 5.08 180) (length 2.54)
          (name "VBUS" (effects (font (size 1.27 1.27))))
          (number "1" (effects (font (size 1.27 1.27))))
        )
        (pin bidirectional line (at 7.62 -2.54 180) (length 2.54)
          (name "D-" (effects (font (size 1.27 1.27))))
          (number "2" (effects (font (size 1.27 1.27))))
        )
        (pin bidirectional line (at 7.62 0 180) (length 2.54)
          (name "D+" (effects (font (size 1.27 1.27))))
          (number "3" (effects (font (size 1.27 1.27))))
        )
        (pin power_out line (at 0 -10.16 90) (length 2.54)
          (name "GND" (effects (font (size 1.27 1.27))))
          (number "4" (effects (font (size 1.27 1.27))))
        )
        (pin passive line (at -2.54 -10.16 90) (length 2.54)
          (name "Shield" (effects (font (size 1.27 1.27))))
          (number "5" (effects (font (size 1.27 1.27))))
        )
      )
    )
    (symbol "Device:C" (pin_numbers hide) (pin_names (offset 0.254)) (in_bom yes) (on_board yes)
      (property "Reference" "C" (id 0) (at 0.635 2.54 0)
        (effects (font (size 1.27 1.27)) (justify left))
      )
      (property "Value" "C" (id 1) (at 0.635 -2.54 0)
        (effects (font (size 1.27 1.27)) (justify left))
      )
      (property "Footprint" "" (id 2) (at 0.9652 -3.81 0)
        (effects (font (size 1.27 1.27)) hide)
      )
      (property "Datasheet" "~" (id 3) (at 0 0 0)
        (effects (font (size 1.27 1.27)) hide)
      )
      (property "ki_keywords" "cap capacitor" (id 4) (at 0 0 0)
        (effects (font (size 1.27 1.27)) hide)
      )
      (property "ki_description" "Unpolarized capacitor" (id 5) (at 0 0 0)
        (effects (font (size 1.27 1.27)) hide)
      )
      (property "ki_fp_filters" "C_*" (id 6) (at 0 0 0)
        (effects (font (size 1.27 1.27)) hide)
      )
      (symbol "C_0_1"
        (polyline
          (pts
            (xy -2.032 -0.762)
            (xy 2.032 -0.762)
          )
          (stroke (width 0.508) (type default) (color 0 0 0 0))
          (fill (type none))
        )
        (polyline
          (pts
            (xy -2.032 0.762)
            (xy 2.032 0.762)
          )
          (stroke (width 0.508) (type default) (color 0 0 0 0))
          (fill (type none))
        )
      )
      (symbol "C_1_1"
        (pin passive line (at 0 3.81 270) (length 2.794)
          (name "~" (effects (font (size 1.27 1.27))))
          (number "1" (effects (font (size 1.27 1.27))))
        )
        (pin passive line (at 0 -3.81 90) (length 2.794)
          (name "~" (effects (font (size 1.27 1.27))))
          (number "2" (effects (font (size 1.27 1.27))))
        )
      )
    )
    (symbol "Device:C_Polarized" (pin_numbers hide) (pin_names (offset 0.254)) (in_bom yes) (on_board yes)
      (property "Reference" "C" (id 0) (at 0.635 2.54 0)
        (effects (font (size 1.27 1.27)) (justify left))
      )
      (property "Value" "C_Polarized" (id 1) (at 0.635 -2.54 0)
        (effects (font (size 1.27 1.27)) (justify left))
      )
      (property "Footprint" "" (id 2) (at 0.9652 -3.81 0)
        (effects (font (size 1.27 1.27)) hide)
      )
      (property "Datasheet" "~" (id 3) (at 0 0 0)
        (effects (font (size 1.27 1.27)) hide)
      )
      (property "ki_keywords" "cap capacitor" (id 4) (at 0 0 0)
        (effects (font (size 1.27 1.27)) hide)
      )
      (property "ki_description" "Polarized capacitor" (id 5) (at 0 0 0)
        (effects (font (size 1.27 1.27)) hide)
      )
      (property "ki_fp_filters" "CP_*" (id 6) (at 0 0 0)
        (effects (font (size 1.27 1.27)) hide)
      )
      (symbol "C_Polarized_0_1"
        (rectangle (start -2.286 0.508) (end 2.286 1.016)
          (stroke (width 0) (type default) (color 0 0 0 0))
          (fill (type none))
        )
        (polyline
          (pts
            (xy -1.778 2.286)
            (xy -0.762 2.286)
          )
          (stroke (width 0) (type default) (color 0 0 0 0))
          (fill (type none))
        )
        (polyline
          (pts
            (xy -1.27 2.794)
            (xy -1.27 1.778)
          )
          (stroke (width 0) (type default) (color 0 0 0 0))
          (fill (type none))
        )
        (rectangle (start 2.286 -0.508) (end -2.286 -1.016)
          (stroke (width 0) (type default) (color 0 0 0 0))
          (fill (type outline))
        )
      )
      (symbol "C_Polarized_1_1"
        (pin passive line (at 0 3.81 270) (length 2.794)
          (name "~" (effects (font (size 1.27 1.27))))
          (number "1" (effects (font (size 1.27 1.27))))
        )
        (pin passive line (at 0 -3.81 90) (length 2.794)
          (name "~" (effects (font (size 1.27 1.27))))
          (number "2" (effects (font (size 1.27 1.27))))
        )
      )
    )
    (symbol "Device:FerriteBead" (pin_numbers hide) (pin_names (offset 0)) (in_bom yes) (on_board yes)
      (property "Reference" "FB" (id 0) (at -3.81 0.635 90)
        (effects (font (size 1.27 1.27)))
      )
      (property "Value" "FerriteBead" (id 1) (at 3.81 0 90)
        (effects (font (size 1.27 1.27)))
      )
      (property "Footprint" "" (id 2) (at -1.778 0 90)
        (effects (font (size 1.27 1.27)) hide)
      )
      (property "Datasheet" "~" (id 3) (at 0 0 0)
        (effects (font (size 1.27 1.27)) hide)
      )
      (property "ki_keywords" "L ferrite bead inductor filter" (id 4) (at 0 0 0)
        (effects (font (size 1.27 1.27)) hide)
      )
      (property "ki_description" "Ferrite bead" (id 5) (at 0 0 0)
        (effects (font (size 1.27 1.27)) hide)
      )
      (property "ki_fp_filters" "Inductor_* L_* *Ferrite*" (id 6) (at 0 0 0)
        (effects (font (size 1.27 1.27)) hide)
      )
      (symbol "FerriteBead_0_1"
        (polyline
          (pts
            (xy 0 -1.27)
            (xy 0 -1.2192)
          )
          (stroke (width 0) (type default) (color 0 0 0 0))
          (fill (type none))
        )
        (polyline
          (pts
            (xy 0 1.27)
            (xy 0 1.2954)
          )
          (stroke (width 0) (type default) (color 0 0 0 0))
          (fill (type none))
        )
        (polyline
          (pts
            (xy -2.7686 0.4064)
            (xy -1.7018 2.2606)
            (xy 2.7686 -0.3048)
            (xy 1.6764 -2.159)
            (xy -2.7686 0.4064)
          )
          (stroke (width 0) (type default) (color 0 0 0 0))
          (fill (type none))
        )
      )
      (symbol "FerriteBead_1_1"
        (pin passive line (at 0 3.81 270) (length 2.54)
          (name "~" (effects (font (size 1.27 1.27))))
          (number "1" (effects (font (size 1.27 1.27))))
        )
        (pin passive line (at 0 -3.81 90) (length 2.54)
          (name "~" (effects (font (size 1.27 1.27))))
          (number "2" (effects (font (size 1.27 1.27))))
        )
      )
    )
    (symbol "Device:Opamp_Dual" (in_bom yes) (on_board yes)
      (property "Reference" "U" (id 0) (at 0 5.08 0)
        (effects (font (size 1.27 1.27)) (justify left))
      )
      (property "Value" "Opamp_Dual" (id 1) (at 0 -5.08 0)
        (effects (font (size 1.27 1.27)) (justify left))
      )
      (property "Footprint" "" (id 2) (at 0 0 0)
        (effects (font (size 1.27 1.27)) hide)
      )
      (property "Datasheet" "~" (id 3) (at 0 0 0)
        (effects (font (size 1.27 1.27)) hide)
      )
      (property "ki_locked" "" (id 4) (at 0 0 0)
        (effects (font (size 1.27 1.27)))
      )
      (property "ki_keywords" "dual opamp" (id 5) (at 0 0 0)
        (effects (font (size 1.27 1.27)) hide)
      )
      (property "ki_description" "Dual operational amplifier" (id 6) (at 0 0 0)
        (effects (font (size 1.27 1.27)) hide)
      )
      (property "ki_fp_filters" "SOIC*3.9x4.9mm*P1.27mm* DIP*W7.62mm* MSOP*3x3mm*P0.65mm* SSOP*2.95x2.8mm*P0.65mm* TSSOP*3x3mm*P0.65mm* VSSOP*P0.5mm* TO?99*" (id 7) (at 0 0 0)
        (effects (font (size 1.27 1.27)) hide)
      )
      (symbol "Opamp_Dual_1_1"
        (polyline
          (pts
            (xy -5.08 5.08)
            (xy 5.08 0)
            (xy -5.08 -5.08)
            (xy -5.08 5.08)
          )
          (stroke (width 0.254) (type default) (color 0 0 0 0))
          (fill (type background))
        )
        (pin output line (at 7.62 0 180) (length 2.54)
          (name "~" (effects (font (size 1.27 1.27))))
          (number "1" (effects (font (size 1.27 1.27))))
        )
        (pin input line (at -7.62 -2.54 0) (length 2.54)
          (name "-" (effects (font (size 1.27 1.27))))
          (number "2" (effects (font (size 1.27 1.27))))
        )
        (pin input line (at -7.62 2.54 0) (length 2.54)
          (name "+" (effects (font (size 1.27 1.27))))
          (number "3" (effects (font (size 1.27 1.27))))
        )
      )
      (symbol "Opamp_Dual_2_1"
        (polyline
          (pts
            (xy -5.08 5.08)
            (xy 5.08 0)
            (xy -5.08 -5.08)
            (xy -5.08 5.08)
          )
          (stroke (width 0.254) (type default) (color 0 0 0 0))
          (fill (type background))
        )
        (pin input line (at -7.62 2.54 0) (length 2.54)
          (name "+" (effects (font (size 1.27 1.27))))
          (number "5" (effects (font (size 1.27 1.27))))
        )
        (pin input line (at -7.62 -2.54 0) (length 2.54)
          (name "-" (effects (font (size 1.27 1.27))))
          (number "6" (effects (font (size 1.27 1.27))))
        )
        (pin output line (at 7.62 0 180) (length 2.54)
          (name "~" (effects (font (size 1.27 1.27))))
          (number "7" (effects (font (size 1.27 1.27))))
        )
      )
      (symbol "Opamp_Dual_3_1"
        (pin power_in line (at -2.54 -7.62 90) (length 3.81)
          (name "V-" (effects (font (size 1.27 1.27))))
          (number "4" (effects (font (size 1.27 1.27))))
        )
        (pin power_in line (at -2.54 7.62 270) (length 3.81)
          (name "V+" (effects (font (size 1.27 1.27))))
          (number "8" (effects (font (size 1.27 1.27))))
        )
      )
    )
    (symbol "Device:R" (pin_numbers hide) (pin_names (offset 0)) (in_bom yes) (on_board yes)
      (property "Reference" "R" (id 0) (at 2.032 0 90)
        (effects (font (size 1.27 1.27)))
      )
      (property "Value" "R" (id 1) (at 0 0 90)
        (effects (font (size 1.27 1.27)))
      )
      (property "Footprint" "" (id 2) (at -1.778 0 90)
        (effects (font (size 1.27 1.27)) hide)
      )
      (property "Datasheet" "~" (id 3) (at 0 0 0)
        (effects (font (size 1.27 1.27)) hide)
      )
      (property "ki_keywords" "R res resistor" (id 4) (at 0 0 0)
        (effects (font (size 1.27 1.27)) hide)
      )
      (property "ki_description" "Resistor" (id 5) (at 0 0 0)
        (effects (font (size 1.27 1.27)) hide)
      )
      (property "ki_fp_filters" "R_*" (id 6) (at 0 0 0)
        (effects (font (size 1.27 1.27)) hide)
      )
      (symbol "R_0_1"
        (rectangle (start -1.016 -2.54) (end 1.016 2.54)
          (stroke (width 0.254) (type default) (color 0 0 0 0))
          (fill (type none))
        )
      )
      (symbol "R_1_1"
        (pin passive line (at 0 3.81 270) (length 1.27)
          (name "~" (effects (font (size 1.27 1.27))))
          (number "1" (effects (font (size 1.27 1.27))))
        )
        (pin passive line (at 0 -3.81 90) (length 1.27)
          (name "~" (effects (font (size 1.27 1.27))))
          (number "2" (effects (font (size 1.27 1.27))))
        )
      )
    )
    (symbol "Regulator_Linear:AP1117-33" (pin_names (offset 0.254)) (in_bom yes) (on_board yes)
      (property "Reference" "U" (id 0) (at -3.81 3.175 0)
        (effects (font (size 1.27 1.27)))
      )
      (property "Value" "AP1117-33" (id 1) (at 0 3.175 0)
        (effects (font (size 1.27 1.27)) (justify left))
      )
      (property "Footprint" "Package_TO_SOT_SMD:SOT-223-3_TabPin2" (id 2) (at 0 5.08 0)
        (effects (font (size 1.27 1.27)) hide)
      )
      (property "Datasheet" "http://www.diodes.com/datasheets/AP1117.pdf" (id 3) (at 2.54 -6.35 0)
        (effects (font (size 1.27 1.27)) hide)
      )
      (property "ki_keywords" "linear regulator ldo fixed positive obsolete" (id 4) (at 0 0 0)
        (effects (font (size 1.27 1.27)) hide)
      )
      (property "ki_description" "1A Low Dropout regulator, positive, 3.3V fixed output, SOT-223" (id 5) (at 0 0 0)
        (effects (font (size 1.27 1.27)) hide)
      )
      (property "ki_fp_filters" "SOT?223*TabPin2*" (id 6) (at 0 0 0)
        (effects (font (size 1.27 1.27)) hide)
      )
      (symbol "AP1117-33_0_1"
        (rectangle (start -5.08 -5.08) (end 5.08 1.905)
          (stroke (width 0.254) (type default) (color 0 0 0 0))
          (fill (type background))
        )
      )
      (symbol "AP1117-33_1_1"
        (pin power_in line (at 0 -7.62 90) (length 2.54)
          (name "GND" (effects (font (size 1.27 1.27))))
          (number "1" (effects (font (size 1.27 1.27))))
        )
        (pin power_out line (at 7.62 0 180) (length 2.54)
          (name "VO" (effects (font (size 1.27 1.27))))
          (number "2" (effects (font (size 1.27 1.27))))
        )
        (pin power_in line (at -7.62 0 0) (length 2.54)
          (name "VI" (effects (font (size 1.27 1.27))))
          (number "3" (effects (font (size 1.27 1.27))))
        )
      )
    )
    (symbol "audio-mixer:Conn_Coaxial_x4" (pin_names (offset 1.016) hide) (in_bom yes) (on_board yes)
      (property "Reference" "J" (id 0) (at 0 5.715 0)
        (effects (font (size 1.27 1.27)))
      )
      (property "Value" "Conn_Coaxial_x4" (id 1) (at 2.921 0 90)
        (effects (font (size 1.27 1.27)))
      )
      (property "Footprint" "" (id 2) (at 0 -2.54 0)
        (effects (font (size 1.27 1.27)) hide)
      )
      (property "Datasheet" " ~" (id 3) (at 0 -2.54 0)
        (effects (font (size 1.27 1.27)) hide)
      )
      (property "ki_locked" "" (id 4) (at 0 0 0)
        (effects (font (size 1.27 1.27)))
      )
      (property "ki_keywords" "BNC SMA SMB SMC LEMO coaxial connector CINCH RCA" (id 5) (at 0 0 0)
        (effects (font (size 1.27 1.27)) hide)
      )
      (property "ki_description" "double coaxial connector (BNC, SMA, SMB, SMC, Cinch/RCA, LEMO, ...)" (id 6) (at 0 0 0)
        (effects (font (size 1.27 1.27)) hide)
      )
      (property "ki_fp_filters" "*BNC* *SMA* *SMB* *SMC* *Cinch* *LEMO*" (id 7) (at 0 0 0)
        (effects (font (size 1.27 1.27)) hide)
      )
      (symbol "Conn_Coaxial_x4_0_1"
        (arc (start -1.778 -3.048) (mid 0.2311 -4.3466) (end 1.778 -2.54)
          (stroke (width 0.254) (type default) (color 0 0 0 0))
          (fill (type none))
        )
        (arc (start -1.778 2.032) (mid 0.2311 0.7334) (end 1.778 2.54)
          (stroke (width 0.254) (type default) (color 0 0 0 0))
          (fill (type none))
        )
        (circle (center 0 -2.54) (radius 0.508)
          (stroke (width 0.2032) (type default) (color 0 0 0 0))
          (fill (type none))
        )
        (polyline
          (pts
            (xy -2.54 -2.54)
            (xy -0.508 -2.54)
          )
          (stroke (width 0) (type default) (color 0 0 0 0))
          (fill (type none))
        )
        (polyline
          (pts
            (xy -2.54 2.54)
            (xy -0.508 2.54)
          )
          (stroke (width 0) (type default) (color 0 0 0 0))
          (fill (type none))
        )
        (polyline
          (pts
            (xy 0 -5.08)
            (xy 0 -4.318)
          )
          (stroke (width 0) (type default) (color 0 0 0 0))
          (fill (type none))
        )
        (polyline
          (pts
            (xy 0 0.762)
            (xy 0 -0.635)
          )
          (stroke (width 0) (type default) (color 0 0 0 0))
          (fill (type none))
        )
        (circle (center 0 2.54) (radius 0.508)
          (stroke (width 0.2032) (type default) (color 0 0 0 0))
          (fill (type none))
        )
        (arc (start 1.778 -2.54) (mid 0.2099 -0.7299) (end -1.778 -2.032)
          (stroke (width 0.254) (type default) (color 0 0 0 0))
          (fill (type none))
        )
        (arc (start 1.778 2.54) (mid 0.2099 4.3501) (end -1.778 3.048)
          (stroke (width 0.254) (type default) (color 0 0 0 0))
          (fill (type none))
        )
      )
      (symbol "Conn_Coaxial_x4_1_1"
        (pin passive line (at -5.08 2.54 0) (length 2.54)
          (name "IN1" (effects (font (size 1.27 1.27))))
          (number "1" (effects (font (size 1.27 1.27))))
        )
        (pin passive line (at -5.08 -2.54 0) (length 2.54)
          (name "IN2" (effects (font (size 1.27 1.27))))
          (number "2" (effects (font (size 1.27 1.27))))
        )
        (pin passive line (at 0 -7.62 90) (length 2.54)
          (name "EXT1" (effects (font (size 1.27 1.27))))
          (number "3" (effects (font (size 1.27 1.27))))
        )
      )
      (symbol "Conn_Coaxial_x4_2_1"
        (pin passive line (at -5.08 2.54 0) (length 2.54)
          (name "IN3" (effects (font (size 1.27 1.27))))
          (number "4" (effects (font (size 1.27 1.27))))
        )
        (pin passive line (at -5.08 -2.54 0) (length 2.54)
          (name "IN4" (effects (font (size 1.27 1.27))))
          (number "5" (effects (font (size 1.27 1.27))))
        )
        (pin passive line (at 0 -7.62 90) (length 2.54)
          (name "EXT2" (effects (font (size 1.27 1.27))))
          (number "6" (effects (font (size 1.27 1.27))))
        )
      )
    )
    (symbol "power:GND" (power) (pin_names (offset 0)) (in_bom yes) (on_board yes)
      (property "Reference" "#PWR" (id 0) (at 0 -6.35 0)
        (effects (font (size 1.27 1.27)) hide)
      )
      (property "Value" "GND" (id 1) (at 0 -3.81 0)
        (effects (font (size 1.27 1.27)))
      )
      (property "Footprint" "" (id 2) (at 0 0 0)
        (effects (font (size 1.27 1.27)) hide)
      )
      (property "Datasheet" "" (id 3) (at 0 0 0)
        (effects (font (size 1.27 1.27)) hide)
      )
      (property "ki_keywords" "power-flag" (id 4) (at 0 0 0)
        (effects (font (size 1.27 1.27)) hide)
      )
      (property "ki_description" "Power symbol creates a global label with name \"GND\" , ground" (id 5) (at 0 0 0)
        (effects (font (size 1.27 1.27)) hide)
      )
      (symbol "GND_0_1"
        (polyline
          (pts
            (xy 0 0)
            (xy 0 -1.27)
            (xy 1.27 -1.27)
            (xy 0 -2.54)
            (xy -1.27 -1.27)
            (xy 0 -1.27)
          )
          (stroke (width 0) (type default) (color 0 0 0 0))
          (fill (type none))
        )
      )
      (symbol "GND_1_1"
        (pin power_in line (at 0 0 270) (length 0) hide
          (name "GND" (effects (font (size 1.27 1.27))))
          (number "1" (effects (font (size 1.27 1.27))))
        )
      )
    )
  )

  (junction (at 49.53 93.98) (diameter 0) (color 0 0 0 0)
    (uuid 05b74dd1-97cf-4159-9cae-1e7200050b2c)
  )
  (junction (at 95.885 81.28) (diameter 0) (color 0 0 0 0)
    (uuid 0932de62-5276-4839-ad50-be738e6a352e)
  )
  (junction (at 173.99 98.425) (diameter 0) (color 0 0 0 0)
    (uuid 2c4ec6b2-4f31-4bbc-964e-e3ac3c4a40c0)
  )
  (junction (at 90.17 109.22) (diameter 0) (color 0 0 0 0)
    (uuid 3fd99d64-3ef1-4fb8-8450-4252881045a3)
  )
  (junction (at 111.125 102.87) (diameter 0) (color 0 0 0 0)
    (uuid 44db9ce8-769c-48ad-b13f-cfc90c60aaaa)
  )
  (junction (at 95.885 109.22) (diameter 0) (color 0 0 0 0)
    (uuid 59dfc593-f5b0-4152-a2b3-ba8b37b0f696)
  )
  (junction (at 81.28 93.98) (diameter 0) (color 0 0 0 0)
    (uuid 6d6e3e9d-2d0b-45e6-bea3-a7d11fe0eb2b)
  )
  (junction (at 81.28 109.22) (diameter 0) (color 0 0 0 0)
    (uuid 78223807-0e7f-4736-a616-2009bf058c20)
  )
  (junction (at 111.125 87.63) (diameter 0) (color 0 0 0 0)
    (uuid 9088aabb-d6a3-4125-bbbc-dd3073a6de09)
  )
  (junction (at 56.515 109.22) (diameter 0) (color 0 0 0 0)
    (uuid 9364ca2c-0a85-4d56-9d32-634609ebce82)
  )
  (junction (at 24.765 109.22) (diameter 0) (color 0 0 0 0)
    (uuid 94a27346-6ea4-450f-bd90-ecca063599ae)
  )
  (junction (at 173.99 71.12) (diameter 0) (color 0 0 0 0)
    (uuid 9e733a85-cc85-4411-84fe-2e47dc945b42)
  )
  (junction (at 74.295 93.98) (diameter 0) (color 0 0 0 0)
    (uuid 9ec22fa3-183a-479d-8d27-fb525396fa9b)
  )
  (junction (at 39.37 109.22) (diameter 0) (color 0 0 0 0)
    (uuid a3e54362-bd2a-4f55-bc4d-b88c15ba104d)
  )
  (junction (at 65.405 109.22) (diameter 0) (color 0 0 0 0)
    (uuid b3e46d2f-b9fa-42c2-9aad-5e9a3c4f4806)
  )
  (junction (at 39.37 93.98) (diameter 0) (color 0 0 0 0)
    (uuid ca184f79-acfe-423c-93b6-cf6917d530d3)
  )
  (junction (at 74.295 109.22) (diameter 0) (color 0 0 0 0)
    (uuid cc70d6a6-05f5-40bb-b221-3a8de69f7bb8)
  )
  (junction (at 49.53 109.22) (diameter 0) (color 0 0 0 0)
    (uuid d20a4ccd-f242-4ccb-92a7-7a7ec81fbc08)
  )
  (junction (at 95.885 95.885) (diameter 0) (color 0 0 0 0)
    (uuid d486ee94-0f0e-4e9a-acfd-61f5e1dbb291)
  )
  (junction (at 56.515 93.98) (diameter 0) (color 0 0 0 0)
    (uuid fd38ee36-1b4d-46d0-b947-569ea3467001)
  )

  (wire (pts (xy 17.145 109.22) (xy 17.145 117.475))
    (stroke (width 0) (type default) (color 0 0 0 0))
    (uuid 028e50d4-0bcf-4c67-af30-840074579527)
  )
  (wire (pts (xy 158.75 85.09) (xy 162.56 85.09))
    (stroke (width 0) (type default) (color 0 0 0 0))
    (uuid 03de643c-7def-4243-ab42-881c214c1216)
  )
  (wire (pts (xy 129.54 99.695) (xy 129.54 92.71))
    (stroke (width 0) (type default) (color 0 0 0 0))
    (uuid 05bfa5cf-6c7c-4cf7-9b07-2a0dcca57d22)
  )
  (wire (pts (xy 81.28 93.98) (xy 81.28 98.425))
    (stroke (width 0) (type default) (color 0 0 0 0))
    (uuid 0960fa1f-42b7-4c94-966f-91a73bcb4de8)
  )
  (wire (pts (xy 81.28 93.98) (xy 81.28 81.28))
    (stroke (width 0) (type default) (color 0 0 0 0))
    (uuid 0b726e21-1de7-4a5b-b464-953b4841e2b5)
  )
  (wire (pts (xy 173.99 98.425) (xy 181.61 98.425))
    (stroke (width 0) (type default) (color 0 0 0 0))
    (uuid 0c9009f8-d4e9-4130-9f9c-2ca2ae4cdf4c)
  )
  (wire (pts (xy 90.17 98.425) (xy 90.17 95.885))
    (stroke (width 0) (type default) (color 0 0 0 0))
    (uuid 2614210f-6a3e-4fb9-b7a8-8f39543f9e69)
  )
  (wire (pts (xy 111.125 102.87) (xy 111.125 109.22))
    (stroke (width 0) (type default) (color 0 0 0 0))
    (uuid 302ea43c-e767-420d-bf1c-dea9c982f175)
  )
  (wire (pts (xy 104.14 91.44) (xy 104.14 87.63))
    (stroke (width 0) (type default) (color 0 0 0 0))
    (uuid 35d598dd-cb00-4e9d-8b66-40ea7c300c81)
  )
  (wire (pts (xy 90.17 106.045) (xy 90.17 109.22))
    (stroke (width 0) (type default) (color 0 0 0 0))
    (uuid 3fd31905-8e08-425b-acd3-e71a2fed6731)
  )
  (wire (pts (xy 95.885 109.22) (xy 111.125 109.22))
    (stroke (width 0) (type default) (color 0 0 0 0))
    (uuid 41a65aad-3ec3-4b90-b3bf-80d5a4d928a3)
  )
  (wire (pts (xy 56.515 93.98) (xy 57.785 93.98))
    (stroke (width 0) (type default) (color 0 0 0 0))
    (uuid 478d49b3-cf55-4d15-8f95-307c3a77ab69)
  )
  (wire (pts (xy 39.37 106.045) (xy 39.37 109.22))
    (stroke (width 0) (type default) (color 0 0 0 0))
    (uuid 4a149381-41da-4b20-bbf8-61f04acde47e)
  )
  (wire (pts (xy 170.18 85.09) (xy 173.99 85.09))
    (stroke (width 0) (type default) (color 0 0 0 0))
    (uuid 4a59c4b3-48f8-4bd2-bf42-d84f6c505165)
  )
  (wire (pts (xy 49.53 109.22) (xy 56.515 109.22))
    (stroke (width 0) (type default) (color 0 0 0 0))
    (uuid 4a80b531-64df-4d17-b286-f49265839655)
  )
  (wire (pts (xy 81.28 109.22) (xy 90.17 109.22))
    (stroke (width 0) (type default) (color 0 0 0 0))
    (uuid 4dfb9e74-6331-4b3f-9d12-e7a979c8cbfe)
  )
  (wire (pts (xy 22.225 109.22) (xy 17.145 109.22))
    (stroke (width 0) (type default) (color 0 0 0 0))
    (uuid 4e61d280-e37a-429a-b8cd-064a56e91ebe)
  )
  (wire (pts (xy 189.23 76.2) (xy 190.5 76.2))
    (stroke (width 0) (type default) (color 0 0 0 0))
    (uuid 523fd49e-b7a8-4d70-b745-419d231e57b2)
  )
  (wire (pts (xy 173.99 98.425) (xy 173.99 112.395))
    (stroke (width 0) (type default) (color 0 0 0 0))
    (uuid 54c9be70-6b47-482d-9975-3c7d4e274de6)
  )
  (wire (pts (xy 111.125 81.28) (xy 95.885 81.28))
    (stroke (width 0) (type default) (color 0 0 0 0))
    (uuid 5571740b-1bca-4bbf-b440-e1c52c62cbff)
  )
  (wire (pts (xy 65.405 109.22) (xy 74.295 109.22))
    (stroke (width 0) (type default) (color 0 0 0 0))
    (uuid 59ba4c7c-e73d-44fa-8468-5edfe29a252f)
  )
  (wire (pts (xy 129.54 126.365) (xy 129.54 119.38))
    (stroke (width 0) (type default) (color 0 0 0 0))
    (uuid 5d57b966-4734-4d1c-9d51-445121fca629)
  )
  (wire (pts (xy 81.28 106.045) (xy 81.28 109.22))
    (stroke (width 0) (type default) (color 0 0 0 0))
    (uuid 5ec3f99f-c7c0-45d8-b149-b8763b2f06f0)
  )
  (wire (pts (xy 49.53 93.98) (xy 56.515 93.98))
    (stroke (width 0) (type default) (color 0 0 0 0))
    (uuid 711fe1a5-79f2-4d13-b65c-2de76bca3f8d)
  )
  (wire (pts (xy 173.99 71.12) (xy 181.61 71.12))
    (stroke (width 0) (type default) (color 0 0 0 0))
    (uuid 7185fb04-5972-470b-9773-a778705fc231)
  )
  (wire (pts (xy 74.295 93.98) (xy 74.295 98.425))
    (stroke (width 0) (type default) (color 0 0 0 0))
    (uuid 7187d4e0-0359-4a33-ac0a-e5a4ce0aaafb)
  )
  (wire (pts (xy 73.025 93.98) (xy 74.295 93.98))
    (stroke (width 0) (type default) (color 0 0 0 0))
    (uuid 71c6f3a7-eb87-46a2-9265-026369aa8f77)
  )
  (wire (pts (xy 170.18 112.395) (xy 173.99 112.395))
    (stroke (width 0) (type default) (color 0 0 0 0))
    (uuid 7278e724-641b-43e3-9a8c-d972397d1578)
  )
  (wire (pts (xy 39.37 109.22) (xy 49.53 109.22))
    (stroke (width 0) (type default) (color 0 0 0 0))
    (uuid 736f36ab-fb8f-4af0-b0fe-0bbdd4611c51)
  )
  (wire (pts (xy 56.515 109.22) (xy 65.405 109.22))
    (stroke (width 0) (type default) (color 0 0 0 0))
    (uuid 75b224bf-8846-4ab1-869e-6e70f94447f4)
  )
  (wire (pts (xy 129.54 73.66) (xy 129.54 66.675))
    (stroke (width 0) (type default) (color 0 0 0 0))
    (uuid 7875d5e5-1c61-43bd-b7d8-b7a3515a5bf1)
  )
  (wire (pts (xy 95.885 95.885) (xy 95.885 97.79))
    (stroke (width 0) (type default) (color 0 0 0 0))
    (uuid 79413b60-c32e-4924-93d8-1f3bb84eff73)
  )
  (wire (pts (xy 111.125 81.28) (xy 111.125 87.63))
    (stroke (width 0) (type default) (color 0 0 0 0))
    (uuid 7bd14c31-ac46-4d5c-98f4-2e5c1c03dd01)
  )
  (wire (pts (xy 49.53 106.045) (xy 49.53 109.22))
    (stroke (width 0) (type default) (color 0 0 0 0))
    (uuid 848e82f0-6a40-466c-8cb4-ceae0702cb28)
  )
  (wire (pts (xy 104.14 99.06) (xy 104.14 102.87))
    (stroke (width 0) (type default) (color 0 0 0 0))
    (uuid 8719d081-46e1-4bd8-943d-7bb7d17883be)
  )
  (wire (pts (xy 56.515 93.98) (xy 56.515 98.425))
    (stroke (width 0) (type default) (color 0 0 0 0))
    (uuid 899fc77f-7549-4846-a685-a351f6deea21)
  )
  (wire (pts (xy 24.765 109.22) (xy 39.37 109.22))
    (stroke (width 0) (type default) (color 0 0 0 0))
    (uuid 8d2f8fee-3b2b-468a-bef6-ed392777dc5f)
  )
  (wire (pts (xy 48.26 93.98) (xy 49.53 93.98))
    (stroke (width 0) (type default) (color 0 0 0 0))
    (uuid 8ed184f0-204d-44e6-9df0-658765de189c)
  )
  (wire (pts (xy 189.23 98.425) (xy 189.23 76.2))
    (stroke (width 0) (type default) (color 0 0 0 0))
    (uuid 90a7ae6e-dbac-447f-a7b5-b24f0639a0ba)
  )
  (wire (pts (xy 56.515 106.045) (xy 56.515 109.22))
    (stroke (width 0) (type default) (color 0 0 0 0))
    (uuid 938f67d3-836a-45b0-ad2f-96e70f9c401c)
  )
  (wire (pts (xy 90.17 109.22) (xy 95.885 109.22))
    (stroke (width 0) (type default) (color 0 0 0 0))
    (uuid 94674fcf-719a-40de-8b02-13a6da768312)
  )
  (wire (pts (xy 95.885 105.41) (xy 95.885 109.22))
    (stroke (width 0) (type default) (color 0 0 0 0))
    (uuid 98337210-3bf1-4feb-8d8c-6a7f671540e9)
  )
  (wire (pts (xy 158.75 112.395) (xy 162.56 112.395))
    (stroke (width 0) (type default) (color 0 0 0 0))
    (uuid a43263c5-40e2-47d0-ae2b-640721382f01)
  )
  (wire (pts (xy 74.295 106.045) (xy 74.295 109.22))
    (stroke (width 0) (type default) (color 0 0 0 0))
    (uuid a80a6da1-f170-462b-bff3-a1b85be5853d)
  )
  (wire (pts (xy 189.23 71.12) (xy 190.5 71.12))
    (stroke (width 0) (type default) (color 0 0 0 0))
    (uuid b1b1ea71-ecc3-4d76-b6cd-58a9dfa4755d)
  )
  (wire (pts (xy 81.28 81.28) (xy 95.885 81.28))
    (stroke (width 0) (type default) (color 0 0 0 0))
    (uuid b29b7460-29f7-488e-803f-dfcea705934b)
  )
  (wire (pts (xy 65.405 101.6) (xy 65.405 109.22))
    (stroke (width 0) (type default) (color 0 0 0 0))
    (uuid b45416a5-ceeb-4220-8651-ac7ef21be9bf)
  )
  (wire (pts (xy 49.53 93.98) (xy 49.53 98.425))
    (stroke (width 0) (type default) (color 0 0 0 0))
    (uuid b7c68bae-dcdc-4eb2-afac-5e6e05fbe14b)
  )
  (wire (pts (xy 74.295 109.22) (xy 81.28 109.22))
    (stroke (width 0) (type default) (color 0 0 0 0))
    (uuid c003657e-3caa-4ba4-96a9-bbed919a696a)
  )
  (wire (pts (xy 173.99 71.12) (xy 173.99 85.09))
    (stroke (width 0) (type default) (color 0 0 0 0))
    (uuid c09daba2-a018-4e8b-87c1-286413259ad5)
  )
  (wire (pts (xy 39.37 98.425) (xy 39.37 93.98))
    (stroke (width 0) (type default) (color 0 0 0 0))
    (uuid c905b19f-bf58-48e3-adf7-34c236bdd462)
  )
  (wire (pts (xy 95.885 81.28) (xy 95.885 86.36))
    (stroke (width 0) (type default) (color 0 0 0 0))
    (uuid d14e651b-4d6b-4010-bd8d-63339ed16790)
  )
  (wire (pts (xy 158.75 100.965) (xy 158.75 112.395))
    (stroke (width 0) (type default) (color 0 0 0 0))
    (uuid d61b3cda-97b7-4856-860c-e084148e3486)
  )
  (wire (pts (xy 104.14 102.87) (xy 111.125 102.87))
    (stroke (width 0) (type default) (color 0 0 0 0))
    (uuid d8376f53-c032-45d4-a2f0-34fca3d5fa8f)
  )
  (wire (pts (xy 104.14 87.63) (xy 111.125 87.63))
    (stroke (width 0) (type default) (color 0 0 0 0))
    (uuid e0abec9e-995f-47cf-aeab-3277645a4746)
  )
  (wire (pts (xy 90.17 95.885) (xy 95.885 95.885))
    (stroke (width 0) (type default) (color 0 0 0 0))
    (uuid e3cffbd7-0736-4da0-a32d-735b94599ac3)
  )
  (wire (pts (xy 95.885 93.98) (xy 95.885 95.885))
    (stroke (width 0) (type default) (color 0 0 0 0))
    (uuid e7869af2-51f3-4d92-b21e-5b140544d26c)
  )
  (wire (pts (xy 32.385 93.98) (xy 39.37 93.98))
    (stroke (width 0) (type default) (color 0 0 0 0))
    (uuid f119aa25-67fe-4efe-b7d7-5405d2ded1ba)
  )
  (wire (pts (xy 158.75 73.66) (xy 158.75 85.09))
    (stroke (width 0) (type default) (color 0 0 0 0))
    (uuid f215d970-a69a-443c-adad-e5582225c833)
  )
  (wire (pts (xy 39.37 93.98) (xy 40.64 93.98))
    (stroke (width 0) (type default) (color 0 0 0 0))
    (uuid faa93cdb-e596-41ea-ba85-cbaf4eaca666)
  )
  (wire (pts (xy 81.28 93.98) (xy 74.295 93.98))
    (stroke (width 0) (type default) (color 0 0 0 0))
    (uuid fc06e127-66f9-4705-b82b-96540a61e258)
  )
  (wire (pts (xy 24.765 113.03) (xy 24.765 109.22))
    (stroke (width 0) (type default) (color 0 0 0 0))
    (uuid fc5ed4df-ca5c-4b7f-9ea2-f25b879b414d)
  )

  (text "is the bias capacitor important? MAX4298 uses it." (at 57.15 113.665 0)
    (effects (font (size 1.27 1.27)) (justify left bottom))
    (uuid 0792816d-68f2-4668-bc4f-1bd652537c27)
  )
  (text "do i really need a pi filter followed by voltage regulator?"
    (at 39.37 78.74 0)
    (effects (font (size 1.27 1.27)) (justify left bottom))
    (uuid a42f57a0-04ec-4771-a94e-550bb430a14a)
  )
  (text "match all resistors within each op amp's connections"
    (at 110.49 46.99 0)
    (effects (font (size 1.27 1.27)) (justify left bottom))
    (uuid d3bb753e-f707-4a95-9de9-067efbc702e3)
  )

  (label "P1" (at 39.37 93.98 90)
    (effects (font (size 1.27 1.27)) (justify left bottom))
    (uuid 259943e3-ef23-42e5-a45e-a40a8ecf1ea4)
  )
  (label "left" (at 158.75 73.66 180)
    (effects (font (size 1.27 1.27)) (justify right bottom))
    (uuid 2ccf65c4-6dc0-4417-8977-73501439ee09)
  )
  (label "left" (at 144.78 87.63 0)
    (effects (font (size 1.27 1.27)) (justify left bottom))
    (uuid 3ca6bde4-5f06-4291-8af3-26fe83302917)
  )
  (label "bias" (at 158.75 68.58 180)
    (effects (font (size 1.27 1.27)) (justify right bottom))
    (uuid 3da58013-d610-4dd8-a4ae-bdda145a2afb)
  )
  (label "right" (at 144.78 126.365 0)
    (effects (font (size 1.27 1.27)) (justify left bottom))
    (uuid 4b448323-d2b1-4e6c-b94d-e59490fc5ab4)
  )
  (label "left" (at 144.78 114.3 0)
    (effects (font (size 1.27 1.27)) (justify left bottom))
    (uuid 8a9c521a-d0b8-44af-b98f-cca0fe670e35)
  )
  (label "P3" (at 74.295 93.98 90)
    (effects (font (size 1.27 1.27)) (justify left bottom))
    (uuid 90094ea9-e0cc-4c92-b059-e0d29c0cbcd4)
  )
  (label "right" (at 144.78 73.66 0)
    (effects (font (size 1.27 1.27)) (justify left bottom))
    (uuid 9d9591b2-9863-49b8-a333-5abd4042b5db)
  )
  (label "right" (at 158.75 100.965 180)
    (effects (font (size 1.27 1.27)) (justify right bottom))
    (uuid a1367837-1371-49e8-88f6-d453c19bbefd)
  )
  (label "bias" (at 95.885 96.52 0)
    (effects (font (size 1.27 1.27)) (justify left bottom))
    (uuid b89701a4-faf2-4264-83d9-78f3094b03ae)
  )
  (label "left" (at 144.78 61.595 0)
    (effects (font (size 1.27 1.27)) (justify left bottom))
    (uuid c5d4f518-3ca7-499f-94e2-6037fbc628dd)
  )
  (label "bias" (at 158.75 95.885 180)
    (effects (font (size 1.27 1.27)) (justify right bottom))
    (uuid d67b30db-a186-457d-b07d-77114b59cfdb)
  )
  (label "right" (at 144.78 99.695 0)
    (effects (font (size 1.27 1.27)) (justify left bottom))
    (uuid e85c50c8-ed0b-441b-85f3-8f3a24127729)
  )
  (label "P2" (at 56.515 93.98 90)
    (effects (font (size 1.27 1.27)) (justify left bottom))
    (uuid f11d5735-f191-4274-b480-f5ef74b970fd)
  )

  (symbol (lib_id "Device:C") (at 74.295 102.235 180) (unit 1)
    (in_bom yes) (on_board yes)
    (uuid 00d23cd5-4bd2-4036-83ff-5fe2ba13407f)
    (property "Reference" "C4" (id 0) (at 74.93 99.695 0)
      (effects (font (size 1.27 1.27)) (justify right))
    )
    (property "Value" "100n" (id 1) (at 74.93 104.775 0)
      (effects (font (size 1.27 1.27)) (justify right))
    )
    (property "Footprint" "Capacitor_SMD:C_0603_1608Metric_Pad1.08x0.95mm_HandSolder" (id 2) (at 73.3298 98.425 0)
      (effects (font (size 1.27 1.27)) hide)
    )
    (property "Datasheet" "~" (id 3) (at 74.295 102.235 0)
      (effects (font (size 1.27 1.27)) hide)
    )
    (pin "1" (uuid 75be0095-8baf-45df-82f5-2284c7f6d066))
    (pin "2" (uuid 11790ada-c31f-40cf-afdb-277fade640c0))
  )

  (symbol (lib_id "audio-mixer:Conn_Coaxial_x4") (at 195.58 73.66 0) (unit 1)
    (in_bom yes) (on_board yes) (fields_autoplaced)
    (uuid 022b9c59-19c7-450e-96e5-b2b4491a9f1b)
    (property "Reference" "J3" (id 0) (at 198.755 73.9531 0)
      (effects (font (size 1.27 1.27)) (justify left))
    )
    (property "Value" "Conn_Coaxial_x2" (id 1) (at 198.12 75.2231 0)
      (effects (font (size 1.27 1.27)) (justify left) hide)
    )
    (property "Footprint" "audio-mixer:A-4575" (id 2) (at 195.58 76.2 0)
      (effects (font (size 1.27 1.27)) hide)
    )
    (property "Datasheet" " ~" (id 3) (at 195.58 76.2 0)
      (effects (font (size 1.27 1.27)) hide)
    )
    (pin "1" (uuid 6ec55f8b-59fd-4f23-9619-978610579966))
    (pin "2" (uuid 248ba838-7f72-4979-9a3b-48c2970e72e6))
    (pin "3" (uuid cf5f9b2b-a479-4746-bc62-9fb990ce2e0d))
    (pin "4" (uuid 32e18e79-574e-4896-b2e0-bdc948fb0928))
    (pin "5" (uuid 96ca052d-2bc4-4427-a837-c904ac8bb618))
    (pin "6" (uuid a894af6f-199a-4f37-9452-ff5b1456fbea))
  )

  (symbol (lib_id "audio-mixer:Conn_Coaxial_x4") (at 124.46 90.17 0) (mirror y) (unit 1)
    (in_bom yes) (on_board yes) (fields_autoplaced)
    (uuid 06dc701c-00a0-40e2-8095-e91baf149961)
    (property "Reference" "J2" (id 0) (at 124.7774 82.55 0))
    (property "Value" "Conn_Coaxial_x2" (id 1) (at 124.7774 82.55 0)
      (effects (font (size 1.27 1.27)) hide)
    )
    (property "Footprint" "audio-mixer:A-4575" (id 2) (at 124.46 92.71 0)
      (effects (font (size 1.27 1.27)) hide)
    )
    (property "Datasheet" " ~" (id 3) (at 124.46 92.71 0)
      (effects (font (size 1.27 1.27)) hide)
    )
    (pin "1" (uuid fccb575e-4215-4c59-a251-3964bbac93f4))
    (pin "2" (uuid f2619788-b1ce-4133-b994-30ea45ef4d80))
    (pin "3" (uuid 1b01eebb-64ca-48a8-9b8f-ec8602fc947b))
    (pin "4" (uuid 59e6c3a0-72fb-462d-bcf2-971a1d5a8bc2))
    (pin "5" (uuid 971f4741-216d-4bde-8503-f0632c963494))
    (pin "6" (uuid 97a8a7e6-d7d8-4256-b894-0c0df0e726dd))
  )

  (symbol (lib_id "Device:C_Polarized") (at 133.35 99.695 270) (unit 1)
    (in_bom yes) (on_board yes) (fields_autoplaced)
    (uuid 0823ee08-66eb-4e92-99f0-446eb1c6c2df)
    (property "Reference" "C10" (id 0) (at 134.239 92.075 90))
    (property "Value" "47u" (id 1) (at 134.239 94.615 90))
    (property "Footprint" "Capacitor_THT:CP_Radial_D5.0mm_P2.00mm" (id 2) (at 129.54 100.6602 0)
      (effects (font (size 1.27 1.27)) hide)
    )
    (property "Datasheet" "~" (id 3) (at 133.35 99.695 0)
      (effects (font (size 1.27 1.27)) hide)
    )
    (pin "1" (uuid cea03ebd-774c-4e4e-a132-77322997cfd3))
    (pin "2" (uuid 70fd75f8-e5de-42c0-a5e2-7e9f02a6a689))
  )

  (symbol (lib_id "Device:R") (at 95.885 90.17 0) (unit 1)
    (in_bom yes) (on_board yes) (fields_autoplaced)
    (uuid 0b1487ec-d085-451c-8ecd-60f16264f67a)
    (property "Reference" "R1" (id 0) (at 98.425 88.8999 0)
      (effects (font (size 1.27 1.27)) (justify left))
    )
    (property "Value" "10k" (id 1) (at 98.425 91.4399 0)
      (effects (font (size 1.27 1.27)) (justify left))
    )
    (property "Footprint" "Resistor_SMD:R_0603_1608Metric_Pad0.98x0.95mm_HandSolder" (id 2) (at 94.107 90.17 90)
      (effects (font (size 1.27 1.27)) hide)
    )
    (property "Datasheet" "~" (id 3) (at 95.885 90.17 0)
      (effects (font (size 1.27 1.27)) hide)
    )
    (pin "1" (uuid 4d0c750d-3f32-4dd7-b6e3-eab3f12fef8b))
    (pin "2" (uuid ca1a99ad-a8fe-4cbf-91b6-3f3ac364ebb1))
  )

  (symbol (lib_id "Device:FerriteBead") (at 17.145 121.285 0) (unit 1)
    (in_bom yes) (on_board yes) (fields_autoplaced)
    (uuid 0c57de38-6dec-48fa-8747-47aa1a0467ff)
    (property "Reference" "FB2" (id 0) (at 20.5486 120.3995 0)
      (effects (font (size 1.27 1.27)) (justify left))
    )
    (property "Value" "FerriteBead" (id 1) (at 20.5486 122.9364 0)
      (effects (font (size 1.27 1.27)) (justify left))
    )
    (property "Footprint" "Inductor_SMD:L_0603_1608Metric_Pad1.05x0.95mm_HandSolder" (id 2) (at 15.367 121.285 90)
      (effects (font (size 1.27 1.27)) hide)
    )
    (property "Datasheet" "~" (id 3) (at 17.145 121.285 0)
      (effects (font (size 1.27 1.27)) hide)
    )
    (pin "1" (uuid a3409564-dc91-407f-b130-1077d5e1ced3))
    (pin "2" (uuid 67f5c3dd-b510-400a-b266-dd3b7001ba66))
  )

  (symbol (lib_id "audio-mixer:Conn_Coaxial_x4") (at 124.46 64.135 0) (mirror y) (unit 2)
    (in_bom yes) (on_board yes) (fields_autoplaced)
    (uuid 11b4268c-f84c-4123-b0f9-6c1d369acd37)
    (property "Reference" "J2" (id 0) (at 124.7774 57.15 0))
    (property "Value" "Conn_Coaxial_x2" (id 1) (at 124.7774 56.515 0)
      (effects (font (size 1.27 1.27)) hide)
    )
    (property "Footprint" "audio-mixer:A-4575" (id 2) (at 124.46 66.675 0)
      (effects (font (size 1.27 1.27)) hide)
    )
    (property "Datasheet" " ~" (id 3) (at 124.46 66.675 0)
      (effects (font (size 1.27 1.27)) hide)
    )
    (pin "1" (uuid 99899844-eef2-4808-ac5c-f4a6ddb998a2))
    (pin "2" (uuid 3f587ae0-8928-4afa-bcc4-70cbfc398d84))
    (pin "3" (uuid 3395e418-12e9-4c74-b20a-d7e12f973277))
    (pin "4" (uuid 62702e2d-494d-4df5-95cf-5162e79f5e44))
    (pin "5" (uuid de7f6a5b-1f6c-48a8-b92d-8a5a968c8da2))
    (pin "6" (uuid c54e3dce-ab48-4f18-9bf6-45b29a80b2a9))
  )

  (symbol (lib_id "Device:C_Polarized") (at 185.42 98.425 90) (mirror x) (unit 1)
    (in_bom yes) (on_board yes) (fields_autoplaced)
    (uuid 11f6a4d2-4b29-48a8-83f4-7d057a096146)
    (property "Reference" "C14" (id 0) (at 184.531 90.805 90))
    (property "Value" "47u" (id 1) (at 184.531 93.345 90))
    (property "Footprint" "Capacitor_THT:CP_Radial_D5.0mm_P2.00mm" (id 2) (at 189.23 99.3902 0)
      (effects (font (size 1.27 1.27)) hide)
    )
    (property "Datasheet" "~" (id 3) (at 185.42 98.425 0)
      (effects (font (size 1.27 1.27)) hide)
    )
    (pin "1" (uuid 7ec789bd-7c44-400b-8345-f008375eae79))
    (pin "2" (uuid ba577c69-2089-4eac-b10d-fbe3953e5c65))
  )

  (symbol (lib_id "Device:R") (at 140.97 99.695 90) (unit 1)
    (in_bom yes) (on_board yes) (fields_autoplaced)
    (uuid 13790d29-6e79-4e09-8964-bc594bab7cfe)
    (property "Reference" "R6" (id 0) (at 140.97 93.345 90))
    (property "Value" "10k" (id 1) (at 140.97 95.885 90))
    (property "Footprint" "Resistor_SMD:R_0603_1608Metric_Pad0.98x0.95mm_HandSolder" (id 2) (at 140.97 101.473 90)
      (effects (font (size 1.27 1.27)) hide)
    )
    (property "Datasheet" "~" (id 3) (at 140.97 99.695 0)
      (effects (font (size 1.27 1.27)) hide)
    )
    (pin "1" (uuid c6da8f34-7fff-4f08-a539-f54af2e44cc3))
    (pin "2" (uuid 987bb650-5e9b-436e-87e8-9589a4adad74))
  )

  (symbol (lib_id "Device:C_Polarized") (at 90.17 102.235 0) (unit 1)
    (in_bom yes) (on_board yes)
    (uuid 15e4a187-d77b-498b-9956-196ece891fa3)
    (property "Reference" "C6" (id 0) (at 90.805 99.695 0)
      (effects (font (size 1.27 1.27)) (justify left))
    )
    (property "Value" "1u" (id 1) (at 90.805 104.775 0)
      (effects (font (size 1.27 1.27)) (justify left))
    )
    (property "Footprint" "Capacitor_THT:CP_Radial_D5.0mm_P2.00mm" (id 2) (at 91.1352 106.045 0)
      (effects (font (size 1.27 1.27)) hide)
    )
    (property "Datasheet" "~" (id 3) (at 90.17 102.235 0)
      (effects (font (size 1.27 1.27)) hide)
    )
    (pin "1" (uuid d7bbe365-0797-4e3b-9930-972e4b5b4903))
    (pin "2" (uuid 82a00e59-2794-4a4b-9e6e-b0e26136e203))
  )

  (symbol (lib_id "Device:Opamp_Dual") (at 166.37 71.12 0) (unit 1)
    (in_bom yes) (on_board yes)
    (uuid 17c8ce47-1e15-424a-80ba-709cda09ad73)
    (property "Reference" "U2" (id 0) (at 162.56 64.135 0))
    (property "Value" "MCP6007" (id 1) (at 169.545 66.04 0))
    (property "Footprint" "Package_SO:SOIC-8_3.9x4.9mm_P1.27mm" (id 2) (at 166.37 71.12 0)
      (effects (font (size 1.27 1.27)) hide)
    )
    (property "Datasheet" "~" (id 3) (at 166.37 71.12 0)
      (effects (font (size 1.27 1.27)) hide)
    )
    (pin "1" (uuid ba786d5a-5aa1-46a5-9d8d-e60817c61662))
    (pin "2" (uuid 453b5c9f-3167-4b3b-be54-06be36805dbf))
    (pin "3" (uuid 1fa5d82e-2c17-411d-b0e4-96ac29732e41))
    (pin "5" (uuid 1c22b1d4-27a2-4237-a8cf-7bdc68c3cef7))
    (pin "6" (uuid a86c8538-5eac-48a8-b6a5-45950a1235f3))
    (pin "7" (uuid 90f4827f-d08b-426b-a6aa-fe0588de77e4))
    (pin "4" (uuid 7d9c3a0e-7eba-4cbf-975c-be5f06c2dd1d))
    (pin "8" (uuid c25f8be9-5b6d-42a4-baad-857dc8c7e2e2))
  )

  (symbol (lib_id "power:GND") (at 124.46 124.46 0) (unit 1)
    (in_bom yes) (on_board yes) (fields_autoplaced)
    (uuid 1d30462d-fd71-42b8-83d5-dc070d59922a)
    (property "Reference" "#PWR04" (id 0) (at 124.46 130.81 0)
      (effects (font (size 1.27 1.27)) hide)
    )
    (property "Value" "GND" (id 1) (at 124.46 129.54 0))
    (property "Footprint" "" (id 2) (at 124.46 124.46 0)
      (effects (font (size 1.27 1.27)) hide)
    )
    (property "Datasheet" "" (id 3) (at 124.46 124.46 0)
      (effects (font (size 1.27 1.27)) hide)
    )
    (pin "1" (uuid 3a854843-1127-4d48-b7b6-07346394746d))
  )

  (symbol (lib_id "Device:R") (at 140.97 114.3 90) (unit 1)
    (in_bom yes) (on_board yes) (fields_autoplaced)
    (uuid 2b3c5b83-38b9-43c0-864f-3fda691ad1f6)
    (property "Reference" "R7" (id 0) (at 140.97 107.95 90))
    (property "Value" "10k" (id 1) (at 140.97 110.49 90))
    (property "Footprint" "Resistor_SMD:R_0603_1608Metric_Pad0.98x0.95mm_HandSolder" (id 2) (at 140.97 116.078 90)
      (effects (font (size 1.27 1.27)) hide)
    )
    (property "Datasheet" "~" (id 3) (at 140.97 114.3 0)
      (effects (font (size 1.27 1.27)) hide)
    )
    (pin "1" (uuid fe4895b0-3749-4c79-b6f9-d24d0c22f1ee))
    (pin "2" (uuid ba9f793f-55dc-432b-903b-2955f26b7584))
  )

  (symbol (lib_id "Device:R") (at 140.97 61.595 90) (unit 1)
    (in_bom yes) (on_board yes) (fields_autoplaced)
    (uuid 36d75de1-daec-4f53-ab25-0a993c25e6a6)
    (property "Reference" "R3" (id 0) (at 140.97 55.245 90))
    (property "Value" "10k" (id 1) (at 140.97 57.785 90))
    (property "Footprint" "Resistor_SMD:R_0603_1608Metric_Pad0.98x0.95mm_HandSolder" (id 2) (at 140.97 63.373 90)
      (effects (font (size 1.27 1.27)) hide)
    )
    (property "Datasheet" "~" (id 3) (at 140.97 61.595 0)
      (effects (font (size 1.27 1.27)) hide)
    )
    (pin "1" (uuid 877ccca9-3a09-4665-9e02-21d8239c072c))
    (pin "2" (uuid 564a4cf8-11cc-4d2d-839e-8ad104763b53))
  )

  (symbol (lib_id "Device:C") (at 104.14 95.25 180) (unit 1)
    (in_bom yes) (on_board yes)
    (uuid 3a1a4d1f-b3eb-4515-becd-17d1b827f16d)
    (property "Reference" "C15" (id 0) (at 104.775 92.71 0)
      (effects (font (size 1.27 1.27)) (justify right))
    )
    (property "Value" "100n" (id 1) (at 104.775 97.79 0)
      (effects (font (size 1.27 1.27)) (justify right))
    )
    (property "Footprint" "Capacitor_SMD:C_0603_1608Metric_Pad1.08x0.95mm_HandSolder" (id 2) (at 103.1748 91.44 0)
      (effects (font (size 1.27 1.27)) hide)
    )
    (property "Datasheet" "~" (id 3) (at 104.14 95.25 0)
      (effects (font (size 1.27 1.27)) hide)
    )
    (pin "1" (uuid 5803ee33-24b0-42bf-b54e-29888c7e88e9))
    (pin "2" (uuid 34a4d0ba-cc02-413c-9dd9-9255452cfb63))
  )

  (symbol (lib_id "Device:FerriteBead") (at 44.45 93.98 90) (unit 1)
    (in_bom yes) (on_board yes) (fields_autoplaced)
    (uuid 3a581894-a564-467a-85b9-87abbd34acec)
    (property "Reference" "FB1" (id 0) (at 44.3992 86.36 90))
    (property "Value" "FerriteBead" (id 1) (at 44.3992 88.9 90))
    (property "Footprint" "Inductor_SMD:L_0603_1608Metric_Pad1.05x0.95mm_HandSolder" (id 2) (at 44.45 95.758 90)
      (effects (font (size 1.27 1.27)) hide)
    )
    (property "Datasheet" "~" (id 3) (at 44.45 93.98 0)
      (effects (font (size 1.27 1.27)) hide)
    )
    (pin "1" (uuid f0d2ba27-1883-4284-befe-f6e9a18f454d))
    (pin "2" (uuid e4bd5ae8-babe-4c1e-b970-ff88765f1247))
  )

  (symbol (lib_id "Device:R") (at 95.885 101.6 0) (unit 1)
    (in_bom yes) (on_board yes) (fields_autoplaced)
    (uuid 4955b36c-a514-44f1-93cc-ba29ae0158f5)
    (property "Reference" "R2" (id 0) (at 98.425 100.3299 0)
      (effects (font (size 1.27 1.27)) (justify left))
    )
    (property "Value" "10k" (id 1) (at 98.425 102.8699 0)
      (effects (font (size 1.27 1.27)) (justify left))
    )
    (property "Footprint" "Resistor_SMD:R_0603_1608Metric_Pad0.98x0.95mm_HandSolder" (id 2) (at 94.107 101.6 90)
      (effects (font (size 1.27 1.27)) hide)
    )
    (property "Datasheet" "~" (id 3) (at 95.885 101.6 0)
      (effects (font (size 1.27 1.27)) hide)
    )
    (pin "1" (uuid 438b3393-fa64-4e6a-b86c-2940ec76154c))
    (pin "2" (uuid ffb4a4cd-e7ba-45ca-b2b0-1cc7a329d06a))
  )

  (symbol (lib_id "Device:R") (at 140.97 126.365 90) (unit 1)
    (in_bom yes) (on_board yes) (fields_autoplaced)
    (uuid 55723626-e1e6-4d77-8ab1-074ba8f546df)
    (property "Reference" "R8" (id 0) (at 140.97 120.015 90))
    (property "Value" "10k" (id 1) (at 140.97 122.555 90))
    (property "Footprint" "Resistor_SMD:R_0603_1608Metric_Pad0.98x0.95mm_HandSolder" (id 2) (at 140.97 128.143 90)
      (effects (font (size 1.27 1.27)) hide)
    )
    (property "Datasheet" "~" (id 3) (at 140.97 126.365 0)
      (effects (font (size 1.27 1.27)) hide)
    )
    (pin "1" (uuid e35d5592-72ea-45b8-a9d7-3b774d2ce880))
    (pin "2" (uuid e9e9859e-307d-4416-8f04-2d8a6dc18307))
  )

  (symbol (lib_id "power:GND") (at 17.145 125.095 0) (unit 1)
    (in_bom yes) (on_board yes) (fields_autoplaced)
    (uuid 5cc86696-a569-4b19-a975-bdc886a89282)
    (property "Reference" "#PWR0101" (id 0) (at 17.145 131.445 0)
      (effects (font (size 1.27 1.27)) hide)
    )
    (property "Value" "GND" (id 1) (at 17.145 130.175 0))
    (property "Footprint" "" (id 2) (at 17.145 125.095 0)
      (effects (font (size 1.27 1.27)) hide)
    )
    (property "Datasheet" "" (id 3) (at 17.145 125.095 0)
      (effects (font (size 1.27 1.27)) hide)
    )
    (pin "1" (uuid 50ab586a-fbe5-45e9-a41f-76799f23f6fb))
  )

  (symbol (lib_id "Device:R") (at 166.37 112.395 90) (unit 1)
    (in_bom yes) (on_board yes)
    (uuid 5f000a20-227f-486a-8304-cf4962cffb32)
    (property "Reference" "R10" (id 0) (at 163.83 109.22 90))
    (property "Value" "10k" (id 1) (at 168.91 109.22 90))
    (property "Footprint" "Resistor_SMD:R_0603_1608Metric_Pad0.98x0.95mm_HandSolder" (id 2) (at 166.37 114.173 90)
      (effects (font (size 1.27 1.27)) hide)
    )
    (property "Datasheet" "~" (id 3) (at 166.37 112.395 0)
      (effects (font (size 1.27 1.27)) hide)
    )
    (pin "1" (uuid e8e8277f-fa3c-42a5-96bb-468a35780dbf))
    (pin "2" (uuid 1abed142-3049-4c8d-9252-86b9571c27ab))
  )

  (symbol (lib_id "Device:C_Polarized") (at 81.28 102.235 0) (unit 1)
    (in_bom yes) (on_board yes)
    (uuid 63f2e232-f656-4355-a7a6-54ca70f6fb13)
    (property "Reference" "C5" (id 0) (at 81.915 99.695 0)
      (effects (font (size 1.27 1.27)) (justify left))
    )
    (property "Value" "10u" (id 1) (at 81.915 104.775 0)
      (effects (font (size 1.27 1.27)) (justify left))
    )
    (property "Footprint" "Capacitor_THT:CP_Radial_D5.0mm_P2.00mm" (id 2) (at 82.2452 106.045 0)
      (effects (font (size 1.27 1.27)) hide)
    )
    (property "Datasheet" "~" (id 3) (at 81.28 102.235 0)
      (effects (font (size 1.27 1.27)) hide)
    )
    (pin "1" (uuid 6b1a77d3-57ff-4b67-aa6f-7589776b7a6f))
    (pin "2" (uuid fc315c51-97a5-417f-8775-983c0748a31d))
  )

  (symbol (lib_id "audio-mixer:Conn_Coaxial_x4") (at 124.46 116.84 0) (mirror y) (unit 2)
    (in_bom yes) (on_board yes) (fields_autoplaced)
    (uuid 693122e6-6ccf-4cdd-81e9-ae0117410401)
    (property "Reference" "J3" (id 0) (at 124.7774 109.22 0))
    (property "Value" "Conn_Coaxial_x2" (id 1) (at 124.7774 109.22 0)
      (effects (font (size 1.27 1.27)) hide)
    )
    (property "Footprint" "audio-mixer:A-4575" (id 2) (at 124.46 119.38 0)
      (effects (font (size 1.27 1.27)) hide)
    )
    (property "Datasheet" " ~" (id 3) (at 124.46 119.38 0)
      (effects (font (size 1.27 1.27)) hide)
    )
    (pin "1" (uuid 4a9b1adf-f8b7-408b-91a5-bffdf554ad37))
    (pin "2" (uuid 12501a75-4f9b-427a-b49c-caf1ee4039ec))
    (pin "3" (uuid 787b99ef-c381-406d-a67e-5bd9436fd7d0))
    (pin "4" (uuid 3560e843-4dfa-4ac7-8db1-98dddba422d9))
    (pin "5" (uuid cf639039-2c05-4bbd-8570-d21527f0334a))
    (pin "6" (uuid 4ca026ec-b83d-4cf7-962a-7cb4547214c6))
  )

  (symbol (lib_id "Regulator_Linear:AP1117-33") (at 65.405 93.98 0) (unit 1)
    (in_bom yes) (on_board yes) (fields_autoplaced)
    (uuid 699b5e59-594e-4c1c-9225-ea78a414591e)
    (property "Reference" "U1" (id 0) (at 65.405 86.36 0))
    (property "Value" "LM1117-3.3" (id 1) (at 65.405 88.9 0))
    (property "Footprint" "Package_TO_SOT_SMD:SOT-223-3_TabPin2" (id 2) (at 65.405 88.9 0)
      (effects (font (size 1.27 1.27)) hide)
    )
    (property "Datasheet" "http://www.diodes.com/datasheets/AP1117.pdf" (id 3) (at 67.945 100.33 0)
      (effects (font (size 1.27 1.27)) hide)
    )
    (pin "1" (uuid c77f242a-fddb-472e-bd07-b5031448d197))
    (pin "2" (uuid 138f3a4f-50ed-4a25-9e10-539b5e576519))
    (pin "3" (uuid d0f911da-9231-4544-9f1c-2cb7903c0ce7))
  )

  (symbol (lib_id "Device:Opamp_Dual") (at 113.665 95.25 0) (unit 3)
    (in_bom yes) (on_board yes)
    (uuid 6e5fc228-046d-4618-88bf-45ec28a8d345)
    (property "Reference" "U2" (id 0) (at 112.395 93.9799 0)
      (effects (font (size 1.27 1.27)) (justify left))
    )
    (property "Value" "MCP6007" (id 1) (at 112.395 96.5199 0)
      (effects (font (size 1.27 1.27)) (justify left))
    )
    (property "Footprint" "Package_SO:SOIC-8_3.9x4.9mm_P1.27mm" (id 2) (at 113.665 95.25 0)
      (effects (font (size 1.27 1.27)) hide)
    )
    (property "Datasheet" "~" (id 3) (at 113.665 95.25 0)
      (effects (font (size 1.27 1.27)) hide)
    )
    (pin "1" (uuid cd79b3c4-a6a5-4257-b81e-2f1abe9f8fad))
    (pin "2" (uuid d0e95628-0c8c-4a68-aaa6-9d71e75a2b05))
    (pin "3" (uuid e198e115-1cdc-488e-91cc-86348197911e))
    (pin "5" (uuid 73ba51dd-ca51-40cf-9b0e-30ffc4a8e921))
    (pin "6" (uuid bea6f370-abfc-41e7-bbdb-efedea711c36))
    (pin "7" (uuid 2bec0611-99d7-4afb-b399-bb74995b1be4))
    (pin "4" (uuid 7799c7ec-bc02-446a-9950-84bc49562bcb))
    (pin "8" (uuid 45cddc74-3b98-453e-a3a3-54d59bcd7fe6))
  )

  (symbol (lib_id "Device:C") (at 49.53 102.235 180) (unit 1)
    (in_bom yes) (on_board yes)
    (uuid 74d622a8-5ad1-4841-9594-820465269b64)
    (property "Reference" "C2" (id 0) (at 50.165 99.695 0)
      (effects (font (size 1.27 1.27)) (justify right))
    )
    (property "Value" "100n" (id 1) (at 50.165 104.775 0)
      (effects (font (size 1.27 1.27)) (justify right))
    )
    (property "Footprint" "Capacitor_SMD:C_0603_1608Metric_Pad1.08x0.95mm_HandSolder" (id 2) (at 48.5648 98.425 0)
      (effects (font (size 1.27 1.27)) hide)
    )
    (property "Datasheet" "~" (id 3) (at 49.53 102.235 0)
      (effects (font (size 1.27 1.27)) hide)
    )
    (pin "1" (uuid 7dddc2ba-884d-45ed-9d8b-af367bb3ff7e))
    (pin "2" (uuid e187db0e-2bb1-4ddb-b7e4-fad3c38a9374))
  )

  (symbol (lib_id "Device:C_Polarized") (at 133.35 114.3 270) (unit 1)
    (in_bom yes) (on_board yes) (fields_autoplaced)
    (uuid 790433f7-4fe3-4ac0-81d5-979b12ecee62)
    (property "Reference" "C11" (id 0) (at 134.239 106.68 90))
    (property "Value" "47u" (id 1) (at 134.239 109.22 90))
    (property "Footprint" "Capacitor_THT:CP_Radial_D5.0mm_P2.00mm" (id 2) (at 129.54 115.2652 0)
      (effects (font (size 1.27 1.27)) hide)
    )
    (property "Datasheet" "~" (id 3) (at 133.35 114.3 0)
      (effects (font (size 1.27 1.27)) hide)
    )
    (pin "1" (uuid 2c1d6449-0488-43fd-9bd7-04b362d5ac5c))
    (pin "2" (uuid 18b72a34-7845-477c-872b-12bc7561761c))
  )

  (symbol (lib_id "Device:C_Polarized") (at 185.42 71.12 90) (mirror x) (unit 1)
    (in_bom yes) (on_board yes) (fields_autoplaced)
    (uuid 7a5ff913-4c5e-4717-baac-9bac881f3081)
    (property "Reference" "C13" (id 0) (at 184.531 63.5 90))
    (property "Value" "47u" (id 1) (at 184.531 66.04 90))
    (property "Footprint" "Capacitor_THT:CP_Radial_D5.0mm_P2.00mm" (id 2) (at 189.23 72.0852 0)
      (effects (font (size 1.27 1.27)) hide)
    )
    (property "Datasheet" "~" (id 3) (at 185.42 71.12 0)
      (effects (font (size 1.27 1.27)) hide)
    )
    (pin "1" (uuid 8a27fc93-c229-4613-a15e-ee0600d3fed0))
    (pin "2" (uuid 4b6a1f9d-d499-4bf6-b659-25c4918deda4))
  )

  (symbol (lib_id "Device:C") (at 39.37 102.235 0) (unit 1)
    (in_bom yes) (on_board yes)
    (uuid 85f6f531-411c-4827-802b-452e68b12b19)
    (property "Reference" "C1" (id 0) (at 40.005 99.695 0)
      (effects (font (size 1.27 1.27)) (justify left))
    )
    (property "Value" "10n" (id 1) (at 40.005 104.775 0)
      (effects (font (size 1.27 1.27)) (justify left))
    )
    (property "Footprint" "Capacitor_SMD:C_0603_1608Metric_Pad1.08x0.95mm_HandSolder" (id 2) (at 40.3352 106.045 0)
      (effects (font (size 1.27 1.27)) hide)
    )
    (property "Datasheet" "~" (id 3) (at 39.37 102.235 0)
      (effects (font (size 1.27 1.27)) hide)
    )
    (pin "1" (uuid 29a191cf-9323-4d90-a9a8-5e6ffff66046))
    (pin "2" (uuid d4807d66-ecd7-4c24-8696-77ee3584a996))
  )

  (symbol (lib_id "Connector:USB_B") (at 24.765 99.06 0) (unit 1)
    (in_bom yes) (on_board yes) (fields_autoplaced)
    (uuid 8ef32606-7ea6-4b70-bb5e-b6d8b00aacd0)
    (property "Reference" "J1" (id 0) (at 24.765 86.36 0))
    (property "Value" "USB_B" (id 1) (at 24.765 88.9 0))
    (property "Footprint" "Connector_USB:USB_B_Lumberg_2411_02_Horizontal" (id 2) (at 28.575 100.33 0)
      (effects (font (size 1.27 1.27)) hide)
    )
    (property "Datasheet" " ~" (id 3) (at 28.575 100.33 0)
      (effects (font (size 1.27 1.27)) hide)
    )
    (pin "1" (uuid 2a404de2-f080-4300-9eaa-0880ced354b6))
    (pin "2" (uuid 82a94cd7-2d01-4e79-9901-16ab467e23dd))
    (pin "3" (uuid b7f3cc48-dfd8-45ab-817c-e0717ac99f10))
    (pin "4" (uuid 88107513-8842-4e86-a6d7-236c56814b08))
    (pin "5" (uuid 56f58cca-0894-40a6-b537-c4329b43034c))
  )

  (symbol (lib_id "power:GND") (at 124.46 97.79 0) (unit 1)
    (in_bom yes) (on_board yes) (fields_autoplaced)
    (uuid 994012b0-4ecf-4be0-98ef-d839d1738b0e)
    (property "Reference" "#PWR03" (id 0) (at 124.46 104.14 0)
      (effects (font (size 1.27 1.27)) hide)
    )
    (property "Value" "GND" (id 1) (at 124.46 102.87 0))
    (property "Footprint" "" (id 2) (at 124.46 97.79 0)
      (effects (font (size 1.27 1.27)) hide)
    )
    (property "Datasheet" "" (id 3) (at 124.46 97.79 0)
      (effects (font (size 1.27 1.27)) hide)
    )
    (pin "1" (uuid b4b38577-fd8f-4ca1-9a1e-55e955f3b59e))
  )

  (symbol (lib_id "Device:C_Polarized") (at 56.515 102.235 0) (unit 1)
    (in_bom yes) (on_board yes)
    (uuid 9d34951f-74fd-4b9c-b861-2d0fcb8e833f)
    (property "Reference" "C3" (id 0) (at 57.15 99.695 0)
      (effects (font (size 1.27 1.27)) (justify left))
    )
    (property "Value" "10u" (id 1) (at 57.15 104.775 0)
      (effects (font (size 1.27 1.27)) (justify left))
    )
    (property "Footprint" "Capacitor_THT:CP_Radial_D5.0mm_P2.00mm" (id 2) (at 57.4802 106.045 0)
      (effects (font (size 1.27 1.27)) hide)
    )
    (property "Datasheet" "~" (id 3) (at 56.515 102.235 0)
      (effects (font (size 1.27 1.27)) hide)
    )
    (pin "1" (uuid 4a1654c7-02de-477a-a318-20d9d406810f))
    (pin "2" (uuid 5345c029-6db2-4a56-991f-92a8de1dee86))
  )

  (symbol (lib_id "Device:C_Polarized") (at 133.35 87.63 270) (unit 1)
    (in_bom yes) (on_board yes) (fields_autoplaced)
    (uuid a27a54cc-97b6-466f-8054-7ed6b540deff)
    (property "Reference" "C9" (id 0) (at 134.239 80.01 90))
    (property "Value" "47u" (id 1) (at 134.239 82.55 90))
    (property "Footprint" "Capacitor_THT:CP_Radial_D5.0mm_P2.00mm" (id 2) (at 129.54 88.5952 0)
      (effects (font (size 1.27 1.27)) hide)
    )
    (property "Datasheet" "~" (id 3) (at 133.35 87.63 0)
      (effects (font (size 1.27 1.27)) hide)
    )
    (pin "1" (uuid 3de456e4-4d1d-4112-8610-ad5e13f34b1f))
    (pin "2" (uuid 22c0c455-077a-4f43-bc98-c7e50ba80504))
  )

  (symbol (lib_id "power:GND") (at 195.58 81.28 0) (unit 1)
    (in_bom yes) (on_board yes) (fields_autoplaced)
    (uuid a4177fd6-a289-4086-89fe-7f66124d48f8)
    (property "Reference" "#PWR05" (id 0) (at 195.58 87.63 0)
      (effects (font (size 1.27 1.27)) hide)
    )
    (property "Value" "GND" (id 1) (at 195.58 86.36 0))
    (property "Footprint" "" (id 2) (at 195.58 81.28 0)
      (effects (font (size 1.27 1.27)) hide)
    )
    (property "Datasheet" "" (id 3) (at 195.58 81.28 0)
      (effects (font (size 1.27 1.27)) hide)
    )
    (pin "1" (uuid 7fdc86dc-bd72-41e3-ac72-30e36208059b))
  )

  (symbol (lib_id "Device:C_Polarized") (at 133.35 73.66 270) (unit 1)
    (in_bom yes) (on_board yes) (fields_autoplaced)
    (uuid a68ef471-b55b-4d19-98b4-e4e2acdc8a2e)
    (property "Reference" "C8" (id 0) (at 134.239 66.04 90))
    (property "Value" "47u" (id 1) (at 134.239 68.58 90))
    (property "Footprint" "Capacitor_THT:CP_Radial_D5.0mm_P2.00mm" (id 2) (at 129.54 74.6252 0)
      (effects (font (size 1.27 1.27)) hide)
    )
    (property "Datasheet" "~" (id 3) (at 133.35 73.66 0)
      (effects (font (size 1.27 1.27)) hide)
    )
    (pin "1" (uuid 7fcc3a18-61be-4fd9-bdfb-981c55be95cd))
    (pin "2" (uuid cf4203d7-e5f3-49a0-ae26-7d2ab14f60d8))
  )

  (symbol (lib_id "power:GND") (at 124.46 71.755 0) (unit 1)
    (in_bom yes) (on_board yes) (fields_autoplaced)
    (uuid b5981a8a-b6ce-4e8f-bb3e-cafabb1714a3)
    (property "Reference" "#PWR02" (id 0) (at 124.46 78.105 0)
      (effects (font (size 1.27 1.27)) hide)
    )
    (property "Value" "GND" (id 1) (at 124.46 76.835 0))
    (property "Footprint" "" (id 2) (at 124.46 71.755 0)
      (effects (font (size 1.27 1.27)) hide)
    )
    (property "Datasheet" "" (id 3) (at 124.46 71.755 0)
      (effects (font (size 1.27 1.27)) hide)
    )
    (pin "1" (uuid 53dad420-7889-4104-a972-bcef3f6dd8aa))
  )

  (symbol (lib_id "Device:R") (at 140.97 87.63 90) (unit 1)
    (in_bom yes) (on_board yes) (fields_autoplaced)
    (uuid b60722ef-4dce-4d3c-a522-73c767f96735)
    (property "Reference" "R5" (id 0) (at 140.97 81.28 90))
    (property "Value" "10k" (id 1) (at 140.97 83.82 90))
    (property "Footprint" "Resistor_SMD:R_0603_1608Metric_Pad0.98x0.95mm_HandSolder" (id 2) (at 140.97 89.408 90)
      (effects (font (size 1.27 1.27)) hide)
    )
    (property "Datasheet" "~" (id 3) (at 140.97 87.63 0)
      (effects (font (size 1.27 1.27)) hide)
    )
    (pin "1" (uuid 29891dd8-ec88-4cea-bb4c-610566b8247d))
    (pin "2" (uuid bcc922e8-c022-4fb0-ae95-8bb58cf4ad10))
  )

  (symbol (lib_id "Device:C_Polarized") (at 133.35 126.365 270) (unit 1)
    (in_bom yes) (on_board yes) (fields_autoplaced)
    (uuid b9ddaad7-e560-4693-b20e-1d9b40561424)
    (property "Reference" "C12" (id 0) (at 134.239 118.745 90))
    (property "Value" "47u" (id 1) (at 134.239 121.285 90))
    (property "Footprint" "Capacitor_THT:CP_Radial_D5.0mm_P2.00mm" (id 2) (at 129.54 127.3302 0)
      (effects (font (size 1.27 1.27)) hide)
    )
    (property "Datasheet" "~" (id 3) (at 133.35 126.365 0)
      (effects (font (size 1.27 1.27)) hide)
    )
    (pin "1" (uuid 501444e3-4852-4521-8c61-cfb811a217a2))
    (pin "2" (uuid ce93538a-090f-491c-ab1d-4b3692820ca4))
  )

  (symbol (lib_id "Device:C_Polarized") (at 133.35 61.595 270) (unit 1)
    (in_bom yes) (on_board yes) (fields_autoplaced)
    (uuid c469b545-d34b-4304-91fa-170b833d4d93)
    (property "Reference" "C7" (id 0) (at 134.239 53.975 90))
    (property "Value" "47u" (id 1) (at 134.239 56.515 90))
    (property "Footprint" "Capacitor_THT:CP_Radial_D5.0mm_P2.00mm" (id 2) (at 129.54 62.5602 0)
      (effects (font (size 1.27 1.27)) hide)
    )
    (property "Datasheet" "~" (id 3) (at 133.35 61.595 0)
      (effects (font (size 1.27 1.27)) hide)
    )
    (pin "1" (uuid 91856361-8580-4821-8c10-19d16891286f))
    (pin "2" (uuid e3e3bed0-a30d-4b40-8dfb-65f40eb6ab0d))
  )

  (symbol (lib_id "Device:R") (at 166.37 85.09 90) (unit 1)
    (in_bom yes) (on_board yes)
    (uuid ca1843d1-7a69-4b22-8aa2-50c4c1fde1a4)
    (property "Reference" "R9" (id 0) (at 163.83 81.915 90))
    (property "Value" "10k" (id 1) (at 168.91 81.915 90))
    (property "Footprint" "Resistor_SMD:R_0603_1608Metric_Pad0.98x0.95mm_HandSolder" (id 2) (at 166.37 86.868 90)
      (effects (font (size 1.27 1.27)) hide)
    )
    (property "Datasheet" "~" (id 3) (at 166.37 85.09 0)
      (effects (font (size 1.27 1.27)) hide)
    )
    (pin "1" (uuid 3f454f3e-8576-4e4d-ae23-6b371a480b98))
    (pin "2" (uuid cb0be590-9d15-4798-b863-5bfa23babb8a))
  )

  (symbol (lib_id "Device:Opamp_Dual") (at 166.37 98.425 0) (unit 2)
    (in_bom yes) (on_board yes)
    (uuid d1dcf29a-8090-4029-b4a5-32fbcb202e10)
    (property "Reference" "U2" (id 0) (at 162.56 91.44 0))
    (property "Value" "MCP6007" (id 1) (at 169.545 93.345 0))
    (property "Footprint" "Package_SO:SOIC-8_3.9x4.9mm_P1.27mm" (id 2) (at 166.37 98.425 0)
      (effects (font (size 1.27 1.27)) hide)
    )
    (property "Datasheet" "~" (id 3) (at 166.37 98.425 0)
      (effects (font (size 1.27 1.27)) hide)
    )
    (pin "1" (uuid 13755d0d-e875-433d-97d6-443f272291da))
    (pin "2" (uuid 29d3ac66-e2fc-4c43-8c34-7ae70f0a41f8))
    (pin "3" (uuid 298dc25f-46ae-458a-a3ed-f8757fe138dc))
    (pin "5" (uuid 70b53718-a1bb-4bb6-b331-0579c4b75333))
    (pin "6" (uuid 00a15ef7-f10f-4ab0-bd46-44216fa1691b))
    (pin "7" (uuid 51021cae-f4b3-4154-98d8-227877ee5fae))
    (pin "4" (uuid 75f4f3d8-57d8-4bf2-8a6c-ed710ad15e74))
    (pin "8" (uuid afb1a257-5322-4f87-a471-81b72cd5f68c))
  )

  (symbol (lib_id "Device:R") (at 140.97 73.66 90) (unit 1)
    (in_bom yes) (on_board yes) (fields_autoplaced)
    (uuid d2cf274e-c467-4c3f-b2e1-7929d1be6bc4)
    (property "Reference" "R4" (id 0) (at 140.97 67.31 90))
    (property "Value" "10k" (id 1) (at 140.97 69.85 90))
    (property "Footprint" "Resistor_SMD:R_0603_1608Metric_Pad0.98x0.95mm_HandSolder" (id 2) (at 140.97 75.438 90)
      (effects (font (size 1.27 1.27)) hide)
    )
    (property "Datasheet" "~" (id 3) (at 140.97 73.66 0)
      (effects (font (size 1.27 1.27)) hide)
    )
    (pin "1" (uuid 0fae8eae-84f4-4d54-a5f6-a9e52b3afe75))
    (pin "2" (uuid 5611b56d-6cb6-4b86-a27f-444e00cd6cb9))
  )

  (symbol (lib_id "power:GND") (at 24.765 113.03 0) (unit 1)
    (in_bom yes) (on_board yes) (fields_autoplaced)
    (uuid fe4d5dd3-da3e-4bc4-b401-64d5a656146e)
    (property "Reference" "#PWR01" (id 0) (at 24.765 119.38 0)
      (effects (font (size 1.27 1.27)) hide)
    )
    (property "Value" "GND" (id 1) (at 24.765 118.11 0))
    (property "Footprint" "" (id 2) (at 24.765 113.03 0)
      (effects (font (size 1.27 1.27)) hide)
    )
    (property "Datasheet" "" (id 3) (at 24.765 113.03 0)
      (effects (font (size 1.27 1.27)) hide)
    )
    (pin "1" (uuid 3e0ad0dd-2365-479c-96cf-b8ccbecd3f82))
  )

  (sheet_instances
    (path "/" (page "1"))
  )

  (symbol_instances
    (path "/fe4d5dd3-da3e-4bc4-b401-64d5a656146e"
      (reference "#PWR01") (unit 1) (value "GND") (footprint "")
    )
    (path "/b5981a8a-b6ce-4e8f-bb3e-cafabb1714a3"
      (reference "#PWR02") (unit 1) (value "GND") (footprint "")
    )
    (path "/994012b0-4ecf-4be0-98ef-d839d1738b0e"
      (reference "#PWR03") (unit 1) (value "GND") (footprint "")
    )
    (path "/1d30462d-fd71-42b8-83d5-dc070d59922a"
      (reference "#PWR04") (unit 1) (value "GND") (footprint "")
    )
    (path "/a4177fd6-a289-4086-89fe-7f66124d48f8"
      (reference "#PWR05") (unit 1) (value "GND") (footprint "")
    )
    (path "/5cc86696-a569-4b19-a975-bdc886a89282"
      (reference "#PWR0101") (unit 1) (value "GND") (footprint "")
    )
    (path "/85f6f531-411c-4827-802b-452e68b12b19"
      (reference "C1") (unit 1) (value "10n") (footprint "Capacitor_SMD:C_0603_1608Metric_Pad1.08x0.95mm_HandSolder")
    )
    (path "/74d622a8-5ad1-4841-9594-820465269b64"
      (reference "C2") (unit 1) (value "100n") (footprint "Capacitor_SMD:C_0603_1608Metric_Pad1.08x0.95mm_HandSolder")
    )
    (path "/9d34951f-74fd-4b9c-b861-2d0fcb8e833f"
      (reference "C3") (unit 1) (value "10u") (footprint "Capacitor_THT:CP_Radial_D5.0mm_P2.00mm")
    )
    (path "/00d23cd5-4bd2-4036-83ff-5fe2ba13407f"
      (reference "C4") (unit 1) (value "100n") (footprint "Capacitor_SMD:C_0603_1608Metric_Pad1.08x0.95mm_HandSolder")
    )
    (path "/63f2e232-f656-4355-a7a6-54ca70f6fb13"
      (reference "C5") (unit 1) (value "10u") (footprint "Capacitor_THT:CP_Radial_D5.0mm_P2.00mm")
    )
    (path "/15e4a187-d77b-498b-9956-196ece891fa3"
      (reference "C6") (unit 1) (value "1u") (footprint "Capacitor_THT:CP_Radial_D5.0mm_P2.00mm")
    )
    (path "/c469b545-d34b-4304-91fa-170b833d4d93"
      (reference "C7") (unit 1) (value "47u") (footprint "Capacitor_THT:CP_Radial_D5.0mm_P2.00mm")
    )
    (path "/a68ef471-b55b-4d19-98b4-e4e2acdc8a2e"
      (reference "C8") (unit 1) (value "47u") (footprint "Capacitor_THT:CP_Radial_D5.0mm_P2.00mm")
    )
    (path "/a27a54cc-97b6-466f-8054-7ed6b540deff"
      (reference "C9") (unit 1) (value "47u") (footprint "Capacitor_THT:CP_Radial_D5.0mm_P2.00mm")
    )
    (path "/0823ee08-66eb-4e92-99f0-446eb1c6c2df"
      (reference "C10") (unit 1) (value "47u") (footprint "Capacitor_THT:CP_Radial_D5.0mm_P2.00mm")
    )
    (path "/790433f7-4fe3-4ac0-81d5-979b12ecee62"
      (reference "C11") (unit 1) (value "47u") (footprint "Capacitor_THT:CP_Radial_D5.0mm_P2.00mm")
    )
    (path "/b9ddaad7-e560-4693-b20e-1d9b40561424"
      (reference "C12") (unit 1) (value "47u") (footprint "Capacitor_THT:CP_Radial_D5.0mm_P2.00mm")
    )
    (path "/7a5ff913-4c5e-4717-baac-9bac881f3081"
      (reference "C13") (unit 1) (value "47u") (footprint "Capacitor_THT:CP_Radial_D5.0mm_P2.00mm")
    )
    (path "/11f6a4d2-4b29-48a8-83f4-7d057a096146"
      (reference "C14") (unit 1) (value "47u") (footprint "Capacitor_THT:CP_Radial_D5.0mm_P2.00mm")
    )
    (path "/3a1a4d1f-b3eb-4515-becd-17d1b827f16d"
      (reference "C15") (unit 1) (value "100n") (footprint "Capacitor_SMD:C_0603_1608Metric_Pad1.08x0.95mm_HandSolder")
    )
    (path "/3a581894-a564-467a-85b9-87abbd34acec"
      (reference "FB1") (unit 1) (value "FerriteBead") (footprint "Inductor_SMD:L_0603_1608Metric_Pad1.05x0.95mm_HandSolder")
    )
    (path "/0c57de38-6dec-48fa-8747-47aa1a0467ff"
      (reference "FB2") (unit 1) (value "FerriteBead") (footprint "Inductor_SMD:L_0603_1608Metric_Pad1.05x0.95mm_HandSolder")
    )
    (path "/8ef32606-7ea6-4b70-bb5e-b6d8b00aacd0"
      (reference "J1") (unit 1) (value "USB_B") (footprint "Connector_USB:USB_B_Lumberg_2411_02_Horizontal")
    )
    (path "/06dc701c-00a0-40e2-8095-e91baf149961"
      (reference "J2") (unit 1) (value "Conn_Coaxial_x2") (footprint "audio-mixer:A-4575")
    )
    (path "/11b4268c-f84c-4123-b0f9-6c1d369acd37"
      (reference "J2") (unit 2) (value "Conn_Coaxial_x2") (footprint "audio-mixer:A-4575")
    )
    (path "/022b9c59-19c7-450e-96e5-b2b4491a9f1b"
      (reference "J3") (unit 1) (value "Conn_Coaxial_x2") (footprint "audio-mixer:A-4575")
    )
    (path "/693122e6-6ccf-4cdd-81e9-ae0117410401"
      (reference "J3") (unit 2) (value "Conn_Coaxial_x2") (footprint "audio-mixer:A-4575")
    )
    (path "/0b1487ec-d085-451c-8ecd-60f16264f67a"
      (reference "R1") (unit 1) (value "10k") (footprint "Resistor_SMD:R_0603_1608Metric_Pad0.98x0.95mm_HandSolder")
    )
    (path "/4955b36c-a514-44f1-93cc-ba29ae0158f5"
      (reference "R2") (unit 1) (value "10k") (footprint "Resistor_SMD:R_0603_1608Metric_Pad0.98x0.95mm_HandSolder")
    )
    (path "/36d75de1-daec-4f53-ab25-0a993c25e6a6"
      (reference "R3") (unit 1) (value "10k") (footprint "Resistor_SMD:R_0603_1608Metric_Pad0.98x0.95mm_HandSolder")
    )
    (path "/d2cf274e-c467-4c3f-b2e1-7929d1be6bc4"
      (reference "R4") (unit 1) (value "10k") (footprint "Resistor_SMD:R_0603_1608Metric_Pad0.98x0.95mm_HandSolder")
    )
    (path "/b60722ef-4dce-4d3c-a522-73c767f96735"
      (reference "R5") (unit 1) (value "10k") (footprint "Resistor_SMD:R_0603_1608Metric_Pad0.98x0.95mm_HandSolder")
    )
    (path "/13790d29-6e79-4e09-8964-bc594bab7cfe"
      (reference "R6") (unit 1) (value "10k") (footprint "Resistor_SMD:R_0603_1608Metric_Pad0.98x0.95mm_HandSolder")
    )
    (path "/2b3c5b83-38b9-43c0-864f-3fda691ad1f6"
      (reference "R7") (unit 1) (value "10k") (footprint "Resistor_SMD:R_0603_1608Metric_Pad0.98x0.95mm_HandSolder")
    )
    (path "/55723626-e1e6-4d77-8ab1-074ba8f546df"
      (reference "R8") (unit 1) (value "10k") (footprint "Resistor_SMD:R_0603_1608Metric_Pad0.98x0.95mm_HandSolder")
    )
    (path "/ca1843d1-7a69-4b22-8aa2-50c4c1fde1a4"
      (reference "R9") (unit 1) (value "10k") (footprint "Resistor_SMD:R_0603_1608Metric_Pad0.98x0.95mm_HandSolder")
    )
    (path "/5f000a20-227f-486a-8304-cf4962cffb32"
      (reference "R10") (unit 1) (value "10k") (footprint "Resistor_SMD:R_0603_1608Metric_Pad0.98x0.95mm_HandSolder")
    )
    (path "/699b5e59-594e-4c1c-9225-ea78a414591e"
      (reference "U1") (unit 1) (value "LM1117-3.3") (footprint "Package_TO_SOT_SMD:SOT-223-3_TabPin2")
    )
    (path "/17c8ce47-1e15-424a-80ba-709cda09ad73"
      (reference "U2") (unit 1) (value "MCP6007") (footprint "Package_SO:SOIC-8_3.9x4.9mm_P1.27mm")
    )
    (path "/d1dcf29a-8090-4029-b4a5-32fbcb202e10"
      (reference "U2") (unit 2) (value "MCP6007") (footprint "Package_SO:SOIC-8_3.9x4.9mm_P1.27mm")
    )
    (path "/6e5fc228-046d-4618-88bf-45ec28a8d345"
      (reference "U2") (unit 3) (value "MCP6007") (footprint "Package_SO:SOIC-8_3.9x4.9mm_P1.27mm")
    )
  )
)
