<?xml version="1.0" encoding="UTF-8" standalone="no"?>
<svg
   version="1.1"
   viewBox="0 0 100.0 100.0"
   id="svg98"
   sodipodi:docname="Opus_logo2-pcb.svg"
   inkscape:version="1.2.1 (9c6d41e410, 2022-07-14, custom)"
   width="100.0mm"
   height="100.0mm"
   xmlns:inkscape="http://www.inkscape.org/namespaces/inkscape"
   xmlns:sodipodi="http://sodipodi.sourceforge.net/DTD/sodipodi-0.dtd"
   xmlns:xlink="http://www.w3.org/1999/xlink"
   xmlns="http://www.w3.org/2000/svg"
   xmlns:svg="http://www.w3.org/2000/svg"
   xmlns:rdf="http://www.w3.org/1999/02/22-rdf-syntax-ns#"
   xmlns:cc="http://creativecommons.org/ns#"
   xmlns:dc="http://purl.org/dc/elements/1.1/">
  <sodipodi:namedview
     id="namedview100"
     pagecolor="#ffffff"
     bordercolor="#000000"
     borderopacity="0.25"
     inkscape:showpageshadow="2"
     inkscape:pageopacity="0.0"
     inkscape:pagecheckerboard="0"
     inkscape:deskcolor="#d1d1d1"
     showgrid="false"
     inkscape:zoom="1"
     inkscape:cx="430"
     inkscape:cy="-63.5"
     inkscape:window-width="2560"
     inkscape:window-height="1359"
     inkscape:window-x="0"
     inkscape:window-y="0"
     inkscape:window-maximized="1"
     inkscape:current-layer="g65"
     inkscape:document-units="mm" />
  <metadata
     id="metadata68">
    <rdf:RDF>
      <cc:Work
         rdf:about="">
        <dc:format>image/svg+xml</dc:format>
        <dc:type
           rdf:resource="http://purl.org/dc/dcmitype/StillImage" />
      </cc:Work>
    </rdf:RDF>
  </metadata>
  <defs
     id="defs84">
    <linearGradient
       id="cvff"
       x1="993.7"
       x2="993.7"
       y1="1171"
       y2="2.82e-6"
       gradientTransform="matrix(0.1635,0,0,0.1078,-33.464067,101.66617)"
       gradientUnits="userSpaceOnUse">
      <stop
         style="stop-color:#8e8e8e"
         offset="0"
         id="stop70" />
      <stop
         style="stop-color:#b5b5b5"
         offset="1"
         id="stop72" />
    </linearGradient>
    <linearGradient
       id="cvfa"
       x2="0"
       y2="1">
      <stop
         style="stop-color:#484848"
         offset="0"
         id="stop75" />
      <stop
         offset="1"
         id="stop77" />
    </linearGradient>
    <linearGradient
       id="cvfe"
       x1="1308"
       x2="1308"
       y1="1622"
       y2="2296"
       gradientTransform="matrix(.1853 0 0 .09506 -.0005006 -2.977e-7)"
       gradientUnits="userSpaceOnUse"
       xlink:href="#cvfa" />
    <linearGradient
       id="cvfd"
       x1=".002838"
       x2=".002838"
       y1="1534"
       y2="2196"
       gradientTransform="matrix(.1764 0 0 .09984 -.0005006 -2.977e-7)"
       gradientUnits="userSpaceOnUse"
       xlink:href="#cvfa" />
    <linearGradient
       id="cvfc"
       x1="1873"
       x2="1873"
       y1="1622"
       y2="2317"
       gradientTransform="matrix(.1861 0 0 .09466 -.0005006 -2.977e-7)"
       gradientUnits="userSpaceOnUse"
       xlink:href="#cvfa" />
    <linearGradient
       id="cvfb"
       x1="745"
       x2="745"
       y1="1227"
       y2="2171"
       gradientTransform="matrix(.1409 0 0 .125 -.0005006 -2.977e-7)"
       gradientUnits="userSpaceOnUse"
       xlink:href="#cvfa" />
  </defs>
  <g
     inkscape:label="[fixed] BG"
     inkscape:groupmode="layer"
     sodipodi:insensitive="true"
     id="g63">
    <rect
       x="0"
       y="0"
       width="100.0"
       height="100.0"
       style="fill:#FFFFFF;fill-opacity:1;stroke:none"
       id="rect61" />
  </g>
  <g
     inkscape:label="F.SilkS"
     inkscape:groupmode="layer"
     id="g65">
    <g
       id="g234"
       transform="matrix(0.99320001,0,0,0.99959999,-124.41327,-55.7803)">
      <path
         d="m 139.20887,62.807162 c -0.55968,-0.465922 -1.42126,-0.777769 -2.58251,-0.937078 l -0.85344,2.713375 c -0.0184,0.09962 -0.0501,0.21262 -0.0993,0.342912 -0.0872,0.217628 -0.19202,0.396964 -0.31526,0.538181 -0.12341,0.141443 -0.26149,0.251765 -0.41449,0.332273 -0.1531,0.07988 -0.31958,0.135185 -0.49943,0.165567 -0.17996,0.03028 -0.36601,0.03972 -0.55826,0.02855 -0.19248,-0.01118 -0.35617,-0.03737 -0.4909,-0.07869 -0.13485,-0.04123 -0.25888,-0.109639 -0.37199,-0.205395 -0.0836,-0.09399 -0.13223,-0.217229 -0.14548,-0.370166 -0.0134,-0.152823 0.0237,-0.341832 0.11106,-0.567027 0.0782,-0.195665 0.17717,-0.366297 0.29705,-0.511268 0.11977,-0.145028 0.2599,-0.257569 0.42024,-0.33728 0.15305,-0.07994 0.31759,-0.133478 0.49374,-0.160447 0.1757,-0.0268 0.37108,-0.03383 0.58546,-0.02137 0.17763,0.0105 0.34297,0.03662 0.49642,0.07914 0.0728,0.01994 0.13655,0.04629 0.19197,0.078 l 0.65487,-2.083535 c -0.16164,-0.01526 -0.32709,-0.02862 -0.49903,-0.03851 -1.65397,-0.09655 -3.04395,0.09445 -4.17049,0.571805 -1.12654,0.478041 -1.87757,1.186853 -2.25251,2.126207 -0.1126,0.288008 -0.17308,0.559403 -0.18196,0.814184 -0.10833,1.847416 1.07932,2.888045 1.81271,3.350611 0.29427,0.197031 0.55593,0.294551 0.55593,0.294551 l 0.33609,-1.074199 0.0994,-0.263997 c 0.44242,0.08364 0.93423,0.141898 1.47816,0.173419 1.66534,0.09718 3.06101,-0.09302 4.18755,-0.571237 1.12654,-0.477586 1.87131,-1.180594 2.23431,-2.109707 0.36305,-0.928544 0.18998,-1.688107 -0.51952,-2.279258"
         style="fill:#303030;fill-opacity:1;stroke-width:0.00755011"
         id="path86" />
      <path
         style="fill:#000000;stroke:none;stroke-width:0.228408;stroke-dasharray:none;stroke-opacity:1"
         d="m 130.0403,63.406958 c -0.60414,-1.036827 -0.4943,-2.728495 0.16476,-3.874462 1.13505,0.436559 2.25178,1.418817 2.50808,2.619354 -0.84452,0.879678 -1.75503,1.103646 -2.67284,1.255108 z"
         id="path368"
         sodipodi:nodetypes="cccc" />
      <path
         style="fill:#000000;stroke:none;stroke-width:0.228408;stroke-dasharray:none;stroke-opacity:1"
         d="m 136.72017,62.215965 c -0.0549,-1.200538 1.40966,-2.655736 2.2884,-2.874015 0.87875,0.818548 0.73229,3.092294 0.29292,3.692562 -1.03999,-0.124185 -1.9845,-0.327422 -2.58132,-0.818547 z"
         id="path466"
         sodipodi:nodetypes="cccc" />
      <path
         style="fill:#ffffff;fill-opacity:1;stroke:none;stroke-width:0.228408;stroke-dasharray:none;stroke-opacity:1"
         d="m 130.83684,63.152767 c -0.19539,-0.388274 -0.15101,-1.347589 -0.0115,-1.846799 0.61408,0.249605 1.12795,0.931581 1.2396,1.264387 -0.36268,0.286949 -0.76693,0.491291 -1.22815,0.582412 z"
         id="path7609"
         sodipodi:nodetypes="cccc" />
      <path
         style="fill:#ffffff;fill-opacity:1;stroke:none;stroke-width:0.205567;stroke-dasharray:none;stroke-opacity:1"
         d="m 137.34981,62.471344 c 0.12025,-0.61481 0.62144,-1.085252 1.16256,-1.458619 0.31737,0.649576 0.32661,1.264468 0.15329,1.810628 -0.54866,0.06477 -0.94638,-0.179374 -1.31585,-0.352009 z"
         id="path9117"
         sodipodi:nodetypes="cccc" />
    </g>
  </g>
</svg>
