<?xml version="1.0" encoding="UTF-8" standalone="no"?>
<svg
   version="1.1"
   viewBox="0 0 477.8 271.4"
   id="svg98"
   sodipodi:docname="Opus_logo2.svg"
   inkscape:version="1.2.1 (9c6d41e, 2022-07-14)"
   xmlns:inkscape="http://www.inkscape.org/namespaces/inkscape"
   xmlns:sodipodi="http://sodipodi.sourceforge.net/DTD/sodipodi-0.dtd"
   xmlns:xlink="http://www.w3.org/1999/xlink"
   xmlns="http://www.w3.org/2000/svg"
   xmlns:svg="http://www.w3.org/2000/svg"
   xmlns:rdf="http://www.w3.org/1999/02/22-rdf-syntax-ns#"
   xmlns:cc="http://creativecommons.org/ns#"
   xmlns:dc="http://purl.org/dc/elements/1.1/">
  <sodipodi:namedview
     id="namedview100"
     pagecolor="#ffffff"
     bordercolor="#000000"
     borderopacity="0.25"
     inkscape:showpageshadow="2"
     inkscape:pageopacity="0.0"
     inkscape:pagecheckerboard="0"
     inkscape:deskcolor="#d1d1d1"
     showgrid="false"
     inkscape:zoom="2.664949"
     inkscape:cx="202.4429"
     inkscape:cy="131.89746"
     inkscape:window-width="1440"
     inkscape:window-height="777"
     inkscape:window-x="0"
     inkscape:window-y="25"
     inkscape:window-maximized="0"
     inkscape:current-layer="g96" />
  <metadata
     id="metadata68">
    <rdf:RDF>
      <cc:Work
         rdf:about="">
        <dc:format>image/svg+xml</dc:format>
        <dc:type
           rdf:resource="http://purl.org/dc/dcmitype/StillImage" />
        <dc:title />
      </cc:Work>
    </rdf:RDF>
  </metadata>
  <defs
     id="defs84">
    <linearGradient
       id="cvff"
       x1="993.7"
       x2="993.7"
       y1="1171"
       y2="2.82e-6"
       gradientTransform="matrix(0.1635,0,0,0.1078,-33.464067,101.66617)"
       gradientUnits="userSpaceOnUse">
      <stop
         style="stop-color:#8e8e8e"
         offset="0"
         id="stop70" />
      <stop
         style="stop-color:#b5b5b5"
         offset="1"
         id="stop72" />
    </linearGradient>
    <linearGradient
       id="cvfa"
       x2="0"
       y2="1">
      <stop
         style="stop-color:#484848"
         offset="0"
         id="stop75" />
      <stop
         offset="1"
         id="stop77" />
    </linearGradient>
    <linearGradient
       id="cvfe"
       x1="1308"
       x2="1308"
       y1="1622"
       y2="2296"
       gradientTransform="matrix(.1853 0 0 .09506 -.0005006 -2.977e-7)"
       gradientUnits="userSpaceOnUse"
       xlink:href="#cvfa" />
    <linearGradient
       id="cvfd"
       x1=".002838"
       x2=".002838"
       y1="1534"
       y2="2196"
       gradientTransform="matrix(.1764 0 0 .09984 -.0005006 -2.977e-7)"
       gradientUnits="userSpaceOnUse"
       xlink:href="#cvfa" />
    <linearGradient
       id="cvfc"
       x1="1873"
       x2="1873"
       y1="1622"
       y2="2317"
       gradientTransform="matrix(.1861 0 0 .09466 -.0005006 -2.977e-7)"
       gradientUnits="userSpaceOnUse"
       xlink:href="#cvfa" />
    <linearGradient
       id="cvfb"
       x1="745"
       x2="745"
       y1="1227"
       y2="2171"
       gradientTransform="matrix(.1409 0 0 .125 -.0005006 -2.977e-7)"
       gradientUnits="userSpaceOnUse"
       xlink:href="#cvfa" />
  </defs>
  <g
     transform="matrix(.9932 0 0 .9996 1.537 .09946)"
     id="g96">
    <path
       d="m 308.13643,120.24617 c -9.837,-8.189 -24.98,-13.67 -45.39,-16.47 l -15,47.69 c -0.3238,1.751 -0.8812,3.737 -1.745,6.027 -1.532,3.825 -3.375,6.977 -5.541,9.459 -2.169,2.486 -4.596,4.425 -7.285,5.84 -2.691,1.404 -5.617,2.376 -8.778,2.91 -3.163,0.5322 -6.433,0.6981 -9.812,0.5017 -3.383,-0.1964 -6.26,-0.6569 -8.628,-1.383 -2.37,-0.7246 -4.55,-1.927 -6.538,-3.61 -1.469,-1.652 -2.324,-3.818 -2.557,-6.506 -0.2349,-2.686 0.4167,-6.008 1.952,-9.966 1.375,-3.439 3.114,-6.438 5.221,-8.986 2.105,-2.549 4.568,-4.527 7.386,-5.928 2.69,-1.405 5.582,-2.346 8.678,-2.82 3.088,-0.4711 6.522,-0.5946 10.29,-0.3756 3.122,0.1845 6.028,0.6437 8.725,1.391 1.279,0.3504 2.4,0.8136 3.374,1.371 l 11.51,-36.62 c -2.841,-0.2681 -5.749,-0.503 -8.771,-0.6769 -29.07,-1.697 -53.5,1.66 -73.3,10.05 -19.8,8.402 -33,20.86 -39.59,37.37 -1.979,5.062 -3.042,9.832 -3.198,14.31 -1.904,32.47 18.97,50.76 31.86,58.89 5.172,3.463 9.771,5.177 9.771,5.177 l 5.907,-18.88 1.747,-4.64 c 7.776,1.47 16.42,2.494 25.98,3.048 29.27,1.708 53.8,-1.635 73.6,-10.04 19.8,-8.394 32.89,-20.75 39.27,-37.08 6.381,-16.32 3.339,-29.67 -9.131,-40.06"
       style="fill:#303030;stroke-width:0.1327;fill-opacity:1"
       id="path86" />
    <path
       style="fill:#000000;stroke:none;stroke-width:4.01447;stroke-dasharray:none;stroke-opacity:1"
       d="m 146.99045,130.78812 c -10.61824,-18.22317 -8.68765,-47.955747 2.89589,-68.097159 19.94943,7.672917 39.57711,24.936986 44.08182,46.037509 -14.84322,15.46113 -30.84634,19.39757 -46.97771,22.05965 z"
       id="path368"
       sodipodi:nodetypes="cccc" />
    <path
       style="fill:#000000;stroke:none;stroke-width:4.01447;stroke-dasharray:none;stroke-opacity:1"
       d="m 264.39532,109.85534 c -0.96531,-21.100525 24.77589,-46.676931 40.22061,-50.51339 15.44474,14.386722 12.8706,54.34985 5.14826,64.9001 -18.27865,-2.18266 -34.87926,-5.75474 -45.36887,-14.38671 z"
       id="path466"
       sodipodi:nodetypes="cccc" />
    <path
       style="fill:#ffffff;fill-opacity:1;stroke:none;stroke-width:4.01447;stroke-dasharray:none;stroke-opacity:1"
       d="m 160.9904,126.32049 c -3.43412,-6.82427 -2.65409,-23.6851 -0.20115,-32.459166 10.79296,4.387032 19.82471,16.373376 21.78707,22.222746 -6.37443,5.04338 -13.47948,8.63488 -21.58592,10.23642 z"
       id="path7609"
       sodipodi:nodetypes="cccc" />
    <path
       style="fill:#ffffff;fill-opacity:1;stroke:none;stroke-width:3.61302;stroke-dasharray:none;stroke-opacity:1"
       d="m 275.46182,114.34387 c 2.11344,-10.80584 10.92235,-19.074288 20.43289,-25.636544 5.57814,11.416884 5.7405,22.224154 2.69435,31.823404 -9.64327,1.1383 -16.63352,-3.15265 -23.12724,-6.18686 z"
       id="path9117"
       sodipodi:nodetypes="cccc" />
  </g>
</svg>
